<?xml version="1.0" encoding="UTF-8" standalone="no"?>
<svg
   xmlns:dc="http://purl.org/dc/elements/1.1/"
   xmlns:cc="http://creativecommons.org/ns#"
   xmlns:rdf="http://www.w3.org/1999/02/22-rdf-syntax-ns#"
   xmlns:svg="http://www.w3.org/2000/svg"
   xmlns="http://www.w3.org/2000/svg"
   version="1.1"
   id="svg3871"
   viewBox="0 0 744.09448819 1052.3622047"
   height="297mm"
   width="210mm">
  <defs
     id="defs3873" />
  <metadata
     id="metadata3876">
    <rdf:RDF>
      <cc:Work
         rdf:about="">
        <dc:format>image/svg+xml</dc:format>
        <dc:type
           rdf:resource="http://purl.org/dc/dcmitype/StillImage" />
        <dc:title></dc:title>
      </cc:Work>
    </rdf:RDF>
  </metadata>
  <g
     id="layer1">
    <path
       id="Ceará"
       d="M 0.2394371,11.382286 C 0.65400219,10.165077 1.5127104,8.8877573 1.9947756,7.6888575 2.6534092,7.0183566 2.8432034,6.7816231 2.9711771,5.9152457 3.2086577,4.9238799 1.7436804,4.8436909 1.7204571,3.9771657 2.5795082,3.144506 3.6264688,3.4158802 4.6771617,3.3495805 5.8265558,3.6893678 7.017033,3.4346904 8.2122985,3.0665857 9.2599099,2.6143863 9.457451,3.2610544 10.479063,3.1086576 11.375397,2.3417906 12.701741,2.8792209 13.78883,2.63948 c 1.254891,-0.109339 1.628269,-1.6255721 2.855247,-0.5968643 1.50909,0.00355 2.846325,-0.1906708 4.21277,0.11338 0.341128,0.3254001 1.555143,0.084331 2.39515,0.34014 0.810877,0.020896 0.836181,0.1738361 1.276832,0.2431645 0.906827,0.3630998 2.006192,0.9563912 2.935938,1.6949255 0.810054,0.5040957 1.78912,1.0832424 2.62191,1.13734 0.656807,1.0720926 2.048808,1.220175 2.84867,2.1648503 0.955988,0.4431561 1.798259,0.593965 2.61837,1.14088 1.107014,0.1835838 1.843413,1.0586885 2.3916,2.04793 1.007127,0.09746 1.31946,1.748808 2.367795,1.381528 1.069475,-0.390536 1.471741,1.003962 1.894819,1.629316 0.817762,0.541983 1.985976,0.714988 2.458686,1.775906 0.980947,0.434153 1.662111,1.53964 2.825483,1.582806 0.574084,0.124505 2.138931,1.052747 1.961277,0.124974 1.019124,1.392995 1.634751,3.143114 3.07542,4.21632 -0.188855,-0.534324 1.334835,0.912882 1.70779,1.5944 0.658364,1.101238 1.364521,2.027646 2.311019,2.849831 1.454537,1.329148 2.810615,3.093078 4.753961,3.531329 0.296583,0.244399 0.542485,1.756312 1.48102,2.16485 0.745266,0.870352 1.939445,2.513482 3.18881,1.5944 0.430968,0.74479 2.059122,0.905837 2.39161,1.25072 1.158523,0.07281 1.573865,1.687261 1.5944,2.50853 -2.144968,0.417769 -4.252987,0.974894 -6.37762,1.48102 -0.150893,1.339 -0.894857,2.17081 -1.590618,3.060182 -0.90497,0.763945 -0.800443,1.974347 -0.917902,2.977298 0.182385,0.80693 -1.697462,1.142504 -1.239136,2.255043 -0.42754,0.864073 -0.647376,1.651479 -1.379234,2.188027 -1.173963,0.358561 -1.05691,1.793403 -2.16485,2.27823 -0.808888,1.376785 1.067507,0.732502 0,2.05147 -1.018902,0.608622 -0.525489,1.790533 -1.48102,2.50498 -0.314735,0.716046 -1.690996,1.234465 -1.70778,2.16485 -0.676062,0.717245 -1.474359,0.471896 -1.93809,0.34014 -0.338683,-0.84209 -1.249431,0.466709 -1.48103,1.0275 -0.682847,0.730675 -0.875074,1.662445 -1.36764,1.93455 -0.658246,0.594002 -0.351692,1.608102 -0.45352,2.05146 -1.116204,0.801105 0.754906,0.532444 0.91058,0.7972 -0.721714,0.644611 -1.305311,1.544388 -1.606366,2.354826 -0.403039,0.754015 -0.568155,1.43907 -0.558474,2.201634 -0.657864,0.213192 -0.128029,1.720095 0.57044,1.93808 -0.48346,0.04739 -0.826301,1.015711 -1.36765,1.59441 -0.690854,0.05212 -1.577189,1.069252 -0.799899,1.48102 -0.66424,0.740984 0.540829,0.902928 1.129423,1.438954 0.472792,0.568591 0.0874,1.669642 -0.102764,2.320296 0.792585,0.01427 1.055256,0.583935 1.70779,1.25427 0.901011,-0.587914 0.847599,1.173352 0.409502,1.755338 -0.956069,0.931585 0.06361,1.737741 -1.433462,1.890532 0.09244,0.832376 0.0299,1.41165 -0.57045,1.93454 -0.953648,0.235571 -0.571354,1.422045 -1.56993,1.585332 -1.235848,-0.322133 -0.269595,0.820514 -1.39211,0.923198 -0.557422,0.472382 -1.200194,0.410855 -1.582816,1.114153 0.280613,0.851382 -0.888322,1.628845 -1.148934,0.593627 -1.29824,0.409397 -1.187204,0.949389 -1.469426,-0.774013 -0.322197,-0.809199 -1.437346,-1.555945 -2.289824,-1.164067 0.08633,-0.763201 -1.677801,-0.394104 -0.91413,-1.48103 0.525518,-0.431405 -0.674989,-1.59758 -1.25072,-2.1613 -0.708845,-0.704963 -1.925227,-0.51274 -2.39515,-1.48102 -0.965468,-0.549132 -1.609422,-1.346085 -2.61836,-1.71133 -1.097677,0.321678 -2.395576,0.226426 -3.400313,0.427756 -1.062725,-1.72e-4 -1.603282,1.321602 -2.751388,1.166644 -1.21085,-0.198469 -2.640284,0.73013 -3.658125,0.381215 -0.675583,-1.437236 -2.306237,-0.324466 -3.518378,-0.607975 -1.532466,0.545507 -1.810132,-0.685422 -0.80981,-1.457833 -0.305072,-1.159368 0.39814,-2.385794 0.48852,-3.393909 0.821179,-0.611065 0.551714,-1.701301 1.230854,-1.756178 -0.41815,-0.48193 -0.639344,-2.192802 0,-2.61836 1.345989,-1.482789 -0.239793,-0.281056 -0.68382,-1.25427 -0.300248,-1.688443 -2.684796,-0.38342 -3.41557,-1.82116 -1.671052,0.374362 -0.975946,-1.059999 -1.5944,-1.93809 -1.108972,-0.69248 -0.645004,-2.099489 -0.91413,-3.1888 0.97625,-0.88525 -0.304967,-1.854905 -0.7670875,-2.697708 -0.068979,-1.083342 0.1841889,-2.225275 -0.6005525,-3.113012 -1.0459568,0.03488 1.014914,-1.885435 -0.2049569,-2.486727 0.00288,-0.93513 -0.3906114,-2.017523 -0.2485631,-2.983853 -1.1892991,-1.015445 0.7656511,-1.352408 0,-2.3916 -0.6708969,-0.791861 -0.083462,-1.710848 -0.34368,-2.50499 0.094111,-0.693598 -0.083644,-1.210936 0.34368,-2.16485 C 8.5037044,44.417887 8.2297681,44.244117 8.3988238,43.179136 8.028279,42.482943 6.9492,42.210311 6.6584532,41.584044 6.0293186,41.697406 5.1647819,40.819296 5.1360271,40.318946 4.9900279,39.571139 4.038322,38.941375 3.5416271,38.837916 3.0684234,38.034441 2.9239019,37.139224 3.4282471,36.219556 3.1163478,35.922158 2.9615628,35.168073 4.0530188,34.383288 4.1376364,33.811884 2.6904953,32.53273 3.4282471,32.460306 4.0227401,31.52532 4.3525583,30.357704 4.4522071,29.154576 5.7607715,28.418633 4.4420639,27.019244 5.2707492,26.070317 5.926213,25.350983 4.3388795,24.909068 5.0226471,23.687536 5.4350566,23.042238 3.6921536,22.786592 3.2014871,23.117096 2.4779154,23.248685 3.531668,21.927101 3.4404746,21.318807 2.8940816,20.784281 2.6095471,19.325378 2.1739771,19.584606 2.7928376,18.949361 3.6072513,17.450218 2.5176571,17.419756 0.77885852,17.501812 2.1929854,15.8385 0.94707197,15.268804 1.4134283,14.702964 2.4291888,13.790325 1.663638,13.553491 c 0.05805,-1.31064 -1.24167418,-0.850294 -1.1974409,-1.944445 -0.348325,0.143528 -0.47865564,0.194207 -0.22676,-0.22676 z"
       style="fill:#5599ff;stroke:#ffffff;stroke-width:0.9920736" />
  </g>
</svg>
