<?xml version="1.0" encoding="UTF-8" standalone="no"?>
<!-- Created with Inkscape (http://www.inkscape.org/) -->

<svg
   xmlns:dc="http://purl.org/dc/elements/1.1/"
   xmlns:cc="http://creativecommons.org/ns#"
   xmlns:rdf="http://www.w3.org/1999/02/22-rdf-syntax-ns#"
   xmlns:svg="http://www.w3.org/2000/svg"
   xmlns="http://www.w3.org/2000/svg"
   xmlns:sodipodi="http://sodipodi.sourceforge.net/DTD/sodipodi-0.dtd"
   xmlns:inkscape="http://www.inkscape.org/namespaces/inkscape"
   width="210mm"
   height="297mm"
   viewBox="0 0 744.09448819 1052.3622047"
   id="svg3545"
   version="1.1"
   inkscape:version="0.91 r13725"
   sodipodi:docname="DF-ink.svg">
  <defs
     id="defs3547" />
  <sodipodi:namedview
     id="base"
     pagecolor="#ffffff"
     bordercolor="#666666"
     borderopacity="1.0"
     inkscape:pageopacity="0.0"
     inkscape:pageshadow="2"
     inkscape:zoom="0.35"
     inkscape:cx="375"
     inkscape:cy="520"
     inkscape:document-units="px"
     inkscape:current-layer="layer1"
     showgrid="false"
     inkscape:window-width="1366"
     inkscape:window-height="705"
     inkscape:window-x="-8"
     inkscape:window-y="-8"
     inkscape:window-maximized="1" />
  <metadata
     id="metadata3550">
    <rdf:RDF>
      <cc:Work
         rdf:about="">
        <dc:format>image/svg+xml</dc:format>
        <dc:type
           rdf:resource="http://purl.org/dc/dcmitype/StillImage" />
        <dc:title></dc:title>
      </cc:Work>
    </rdf:RDF>
  </metadata>
  <g
     inkscape:label="Camada 1"
     inkscape:groupmode="layer"
     id="layer1">
    <path
       style="fill:#ffd42a;stroke:#ffffff;stroke-width:0.9920736"
       d="m 17.146166,24.06617 c 0.01827,-0.241517 0.208656,-0.513607 0.475323,-0.518316 0.292755,0.01447 0.293917,-0.326187 0.476211,-0.481499 0.09259,-0.260284 0.41233,-0.231357 0.405981,-0.522061 -0.0682,-0.193655 -0.07861,-0.552355 -0.254275,-0.624139 -0.197786,0.194423 -0.527147,-0.0036 -0.41942,-0.271389 0.06075,-0.432322 0.177024,-0.881065 0.45707,-1.228466 0.369669,0.111675 0.183209,-0.332779 0.22676,-0.547223 0,-0.501415 0,-1.002831 0,-1.504247 4.405277,0 8.810553,0 13.21583,0 0,0.265737 0,0.531473 0,0.79721 0.324261,-0.139389 0.307762,0.363478 0.57045,0.34014 -0.02743,0.347245 0.401485,0.188215 0.610374,0.243611 0.155261,0.09185 0.697479,0.0851 0.413586,0.326829 -0.05409,0.253318 -0.334452,0.516291 -0.132635,0.75869 0.05527,0.211366 0.02099,0.505356 -0.06436,0.638715 0.22378,0.07321 0.435093,0.278445 0.2539,0.540255 -0.240672,0.196203 0.199502,0.515742 -0.02771,0.57087 -0.04762,0.285126 -0.0047,0.07345 -0.142572,0.424328 -0.06654,0.160747 -0.182612,0.360528 -0.316055,0.575547 -0.131251,0.168668 -0.09767,0.340393 -0.342297,0.454882 0.0066,0.18069 -0.101255,0.589987 -0.05466,0.593163 0.14376,0.253889 -0.310126,0.346262 -0.08419,0.427868 0.07244,0.27306 0.0095,0.388546 0.197457,0.399552 -0.25406,0.143441 0.298258,0.424574 -0.139073,0.42685 0.06666,0.100278 0.03527,0.348438 -0.05838,0.499154 -0.0039,0.244683 -0.03307,0.514648 0.11338,0.608994 0.123215,0.115636 0.301462,0.17624 0.45706,0.259492 0.01059,0.117737 0.170307,3.32e-4 0.268854,0.22676 0.145038,0.11872 0.293401,0.128734 0.268854,0.22676 0.113829,0.220604 -0.423646,0.07576 -0.598679,0.11692 -1.990771,0.01082 -3.982625,-0.02187 -5.972705,0.01674 -1.29149,0.08247 -2.584221,0.115092 -3.878221,0.09664 -1.936311,0 -3.872622,0 -5.808933,0 0.01623,-0.269199 0.169826,-0.516323 0.11338,-0.7972 0.06174,-0.200669 0.326211,-0.489826 0.137465,-0.659735 0.09881,-0.13329 0.322699,-0.405323 0.165025,-0.61335 -0.157632,-0.11139 -0.574081,0.03012 -0.331682,-0.207935 0.120841,-0.225653 -0.185695,-0.267763 -0.08419,-0.57045 0.197644,-0.154245 -0.139458,-0.418835 -0.09297,-0.680365 -0.0344,-0.112394 -0.02208,-0.22797 -0.02395,-0.343595 z"
       id="Distrito Federal"
       inkscape:connector-curvature="0" />
  </g>
</svg>
