<?xml version="1.0" encoding="UTF-8" standalone="no"?>
<svg
   xmlns:dc="http://purl.org/dc/elements/1.1/"
   xmlns:cc="http://creativecommons.org/ns#"
   xmlns:rdf="http://www.w3.org/1999/02/22-rdf-syntax-ns#"
   xmlns:svg="http://www.w3.org/2000/svg"
   xmlns="http://www.w3.org/2000/svg"
   version="1.1"
   id="svg3512"
   viewBox="0 0 744.09448819 1052.3622047"
   height="297mm"
   width="210mm">
  <defs
     id="defs3514" />
  <metadata
     id="metadata3517">
    <rdf:RDF>
      <cc:Work
         rdf:about="">
        <dc:format>image/svg+xml</dc:format>
        <dc:type
           rdf:resource="http://purl.org/dc/dcmitype/StillImage" />
        <dc:title></dc:title>
      </cc:Work>
    </rdf:RDF>
  </metadata>
  <g
     id="layer1">
    <path
       id="Goiás"
       d="m 1.7526829,89.983063 c 0.2603676,-0.740628 0.2093802,-1.411208 0.45352,-1.82471 0.4149534,-0.479037 0.1417037,-0.807455 0,-1.36764 -0.2700901,-0.428973 0.7888159,-1.21328 0.9078597,-2.269984 0.426701,-0.41416 0.7250333,-1.513458 1.2569903,-1.602656 0.135582,-0.248114 0.5851711,-0.440836 0.22676,-1.13734 0.4000658,-0.398177 0.2252044,-1.108811 0.57044,-1.8247 0.3411752,-0.838627 0.4698853,-1.27861 1.36764,-1.02397 0.4444473,-0.154594 0.1065992,-1.006147 0.68383,-0.91412 0.5828653,-0.817683 1.3087225,-0.631258 2.0514601,-1.25072 0.6073913,-0.739575 0.4093912,-2.085831 1.13734,-1.59441 -0.486556,-1.394323 0.415608,-0.820384 1.02751,-1.36764 0.219247,-0.244641 0.688424,-0.989764 1.02396,-1.82471 -0.378925,-0.540781 -1.837559,-0.993529 -1.36764,-2.04792 -0.317807,-1.284972 1.511627,-1.368456 2.16484,-1.36764 -0.176781,-0.725858 0.08042,-2.247805 1.36765,-2.39161 1.034123,-0.667205 2.455775,-0.260287 2.61836,-1.71133 1.01406,-1.190711 0.711421,-3.043198 2.744349,-2.367264 1.156369,-0.0054 2.985639,-0.01999 3.296671,-1.165226 1.448619,0.390205 2.307771,-1.474955 3.132706,-2.860992 0.230885,-1.860898 -0.197245,-1.875605 0.629264,-2.371032 0.912434,-0.666588 0.338683,-1.908156 1.02124,-2.853376 0.166534,-1.107362 -0.175488,-2.716321 1.037046,-3.30573 0.797809,-1.530213 2.199362,-1.891803 3.40517,-2.820331 1.550636,-1.060197 1.693667,1.233392 3.349002,0.190738 1.309786,-0.98581 2.231923,-1.625235 2.187792,-3.253365 0.910232,-1.020611 0.36969,-2.526369 1.41213,-3.687012 0.694623,-1.49745 0.06791,-2.739262 0.02833,-4.215457 0.118731,-1.261604 1.2282,-2.855221 1.225926,-4.213623 1.916441,0.356356 0.985964,-1.886523 1.161631,-3.097135 0.364055,-1.350151 -0.375682,-2.844294 -0.137671,-3.967845 1.961328,-0.189202 0.758881,-3.480978 2.644911,-4.122391 0.565712,-1.238275 1.090819,-2.32921 1.684779,-3.622869 0.56871,-1.113491 -0.559456,-2.95352 0.229446,-3.730911 -0.34119,-1.113463 1.373785,-0.894199 1.251584,-2.650249 0.287134,-1.1596057 0.412578,-2.1963574 0.68382,-2.84512 0.248611,-0.599801 0.626068,-1.5636908 0.91058,-1.48103 0.298413,-0.771425 0.747516,-1.8921996 1.36765,-1.9380801 -0.08949,-0.602212 1.811438,-1.3614161 1.93808,-1.70779 0.426647,-0.073662 1.397361,-1.3046917 0.91058,0 -1.373624,0.3559497 -0.820735,2.3557173 -0.68382,2.16485 -0.843727,0.3751648 -0.717495,1.3035126 -1.14088,2.0479201 -0.696378,-0.2968873 -0.163966,0.9223755 -0.45352,1.71133 -0.450496,1.1965636 0.798032,1.0323947 1.13734,1.36764 0.452784,0.654676 1.411929,0.81362 2.62191,0.7972 1.1252,0.663619 2.695685,0.797911 4.065094,1.856028 2.576772,1.537462 5.171861,3.043439 7.783096,4.521592 1.078869,-1.026997 -0.25384,-2.516118 0.5704,-3.64587 1.186111,-1.10512 0.967896,-2.196766 1.9346,-3.30219 1.130829,-0.709674 1.509481,-1.9082396 2.6219,-0.45706 -1.023549,1.330733 0.770086,0.709953 1.3676,1.70778 0.76645,0.287916 1.691031,-3.5325101 2.3916,-2.04792 0.115045,0.4871596 0.871226,0.93364 1.4811,1.36764 0.328771,1.226493 0.656668,2.015126 1.481,1.59441 0.671096,0.629132 1.123727,1.395021 1.478277,2.156588 -0.350342,0.762366 -0.07076,1.472502 -0.223977,2.399862 0.157813,2.314494 0.566387,-0.966079 1.0239,-1.36764 0.345273,-1.57229 1.302232,-0.620998 0.9106,0.45706 0.282123,0.854647 0.202934,1.712279 1.1409,1.02396 0.743764,-0.08832 1.001758,-0.788693 1.481,-0.57044 0.470326,-0.201871 0.467259,-0.624827 1.2507,-0.7972 0.193489,-0.238982 2.093802,-1.259045 1.3677,0 0.211357,0.734047 -0.437142,2.359765 0.3437,1.93808 1.141935,0.108562 0.880794,-1.062385 1.481,-1.14088 0.238991,0.746295 1.047796,0.792293 1.7078,1.25426 0.66886,-0.761916 0.780888,0.481463 1.8211,0.22676 1.34763,-0.387807 2.384577,3.864107 3.1924,1.59441 0.629359,-0.763773 -0.341864,-2.205735 -0.1134,-3.07543 -0.157662,-0.758626 0.0071,-0.988082 0.1134,-1.82117 1.241952,-1.465826 1.136349,1.240815 2.3916,1.02397 0.835256,0.329398 0.94869,0.719664 1.480997,1.70778 0.370754,-1.381543 1.84734,-0.587354 2.3916,-0.45352 0.33507,-0.874708 1.23772,-1.536289 1.9381,-1.0275 0.7301,-0.3975 1.08558,-0.448076 1.7078,-0.68028 1.0201,-0.69184 1.39869,-0.543152 2.2782,-1.36765 0.94459,-0.882419 1.16224,0.111024 1.8247,-1.25426 1.0329,-1.384456 3.77466,-0.419165 5.54801,-0.68382 1.42882,0.455174 0.70178,-3.5451049 1.51349,-2.05147 0.88426,-0.203838 0.48419,1.419587 0.3401,2.27823 1.16413,-0.104346 2.21637,-0.295399 3.3057,-0.68383 1.85089,-0.992679 0.73392,0.699881 -0.5704,1.02751 -1.02182,-0.524394 -1.95156,1.563784 -1.481,2.05146 0.25419,0.944093 -0.74697,1.942915 0,2.73175 -0.31094,1.684742 1.69326,0.773378 2.75211,0.177873 2.36634,-1.39658 1.26488,1.106324 -0.23754,1.531369 -1.81514,0.213887 -1.06357,1.176763 -1.26037,1.709868 -1.31056,1.672528 2.10384,1.393945 0.36748,2.548581 -0.92145,0.951045 -1.14805,1.917046 -0.32383,2.324302 -1.78414,0.706554 0.52894,1.251524 -0.61405,2.872377 1.01271,0.923719 0.59021,1.93987 0.3437,2.84867 -0.85496,0.393805 2.19858,0.78955 2.0479,1.70778 1.12846,-0.0504 1.31512,1.385067 2.3951,1.48103 0.91218,0.916433 1.59932,2.608925 -0.33543,2.624607 -0.6339,-0.787969 0.0332,1.374287 -0.008,1.591703 0.3076,0.585321 -0.0306,1.135837 0.1133,2.16485 -1.04961,0.440003 -0.016,1.029957 -0.3401,2.27822 -0.69072,1.012376 -0.28499,1.840188 -1.2543,2.62191 -1.33969,-0.276477 -1.14052,0.05976 -2.3916,0.22676 -1.17251,-0.293135 -1.55465,-0.722099 -1.5944,-1.82471 -0.42558,-0.699396 -2.13871,-1.90262 -2.84253,-2.163387 -0.19654,0.158237 -2.13956,1.598668 -0.68997,2.050007 0.0308,1.189735 -0.22827,2.524101 0.3402,3.41912 0.016,0.969769 -2.21298,1.51573 -3.18054,0.459786 -1.06504,-0.836875 -3.94432,-1.101269 -3.54076,0.564174 1.1435,0.397805 -1.59708,3.296714 0.2303,2.62191 0.42688,1.156216 1.71876,2.190723 0,2.84866 -1.19305,1.186994 -1.05582,3.449981 0.68293,3.730906 0.12803,1.297495 0.66729,2.871912 0.91147,4.127734 -0.78955,1.316046 -3.58608,0.589657 -4.7868,1.82471 -0.79724,-0.473868 -1.03471,-0.718104 -1.3641,0 0.2358,0.06695 -0.55417,0.44941 -1.0275,0.91058 -1.18407,-0.498637 -1.02872,0.748148 -1.7078,0 -0.74114,0.191063 -0.81513,-1.218941 -0.457,-1.5944 -0.37948,-0.369421 -0.24989,-1.338359 0.2303,-2.05147 0.46221,-0.808732 0.8666,-1.331218 0.2267,-2.16484 0.78623,-1.59501 -0.3599,-1.648336 -1.3676,-2.27823 -0.223142,-1.762273 -3.635051,-0.335779 -5.159045,-0.7972 -2.685584,0 -5.371168,0 -8.056752,0 0.63504,1.760299 -1.54075,3.074546 -0.02834,4.102072 -0.654392,0.870676 -1.878384,1.823545 -1.109057,2.959368 0.800397,0.255385 -0.866267,2.560499 0.593032,2.50853 5.164292,0.148368 10.610201,-0.328623 15.584865,0 -0.14838,0.784971 -0.40957,0.612619 -0.8007,1.36764 0.23338,0.74062 0.61235,1.032016 0.457,2.04792 -0.33955,0.784926 -1.41561,1.955228 -1.5944,2.96205 -1.097867,0.955651 -0.163191,2.368084 0.1134,2.39515 0.236895,0.361961 0.73633,0.590761 1.3676,0.68382 -0.0512,0.302402 0.73395,0.1888 0.9106,1.02396 0.73892,-0.04489 0.41831,0.732221 0.9106,1.36765 -0.42575,0.819666 0.65761,1.338055 0.45437,2.043209 -0.51983,0.632621 0.75955,0.812437 0.34283,1.258981 0.47152,0.483263 0.90846,0.903578 0.5705,1.36764 0.27706,0.0085 -0.33819,0.843649 -0.6839,0.45706 0.20336,0.783019 -0.67057,0.552811 -0.7972,0.91059 -0.63628,0.0089 -0.6867,0.623218 -1.1373,1.13734 -0.7495,-0.37529 -0.97199,0.908966 -0.9141,0.80074 -0.611565,0.781315 -0.657781,0.799344 -1.3641,1.3641 0.453132,0.688136 -0.42587,1.395488 -0.5705,1.14089 -0.944824,-0.442499 -0.814126,0.270579 -1.027497,0.91058 -0.09953,0.69523 0.13888,0.888701 0.457097,2.16485 0.49837,0.244967 1.891404,-0.178828 3.0754,0.11338 0.94831,0.994959 1.24362,2.395881 0.2303,2.84866 -0.65408,0.955022 -0.57499,1.854389 -1.0275,2.27823 0.0562,0.972832 0.42109,1.332369 0.4571,1.938087 0.41635,0.780317 0.83062,1.34569 0.7972,2.16484 -0.80418,0.160819 -1.18016,0.77438 -1.9381,1.25073 0.34435,0.25554 -1.203912,0.52127 -1.2507,1.0275 -0.89298,0.97424 -1.187349,-0.35586 -1.597997,0.68382 -1.204925,0.42233 -0.389279,1.08534 -1.1373,1.82117 -0.343846,0.51453 -1.77696,0.28774 -1.7078,1.14088 -1.057781,-0.0487 -1.124236,0.46945 -1.8247,0.5669 -0.03847,0.76366 -1.640592,1.10917 -1.8212,0.68382 -0.396694,-0.21279 -1.259513,-1.36846 -2.1648,-0.7972 -1.171037,-0.63109 -1.881975,-1.27855 -2.9621,-1.70778 -0.724194,1.1322 -1.176547,0.80912 -2.3916,0.45706 -1.34426,0.56171 -1.766565,-0.38682 -3.079,-0.45706 -1.069495,0.30941 -2.622308,0.011 -3.613531,0.74954 -0.484331,-0.83717 -2.478084,-1.73072 -2.990769,-0.29248 -1.074682,0.7082 -1.700276,0.96125 -2.56331,0.66686 -1.643162,0.26575 -0.578045,0.89535 -1.76639,2.17826 -1.21147,0.41744 -1.478172,1.36607 -2.500336,2.16212 -1.348896,-0.3093 -1.046932,-2.82901 -2.286464,-2.61563 0.367265,1.46468 -2.702495,0.27387 -1.82115,1.82116 -1.316034,-0.71964 -2.070868,1.01567 -3.30573,0.57044 -1.081386,-0.26144 -3.148745,-1.2182 -3.75925,0.34014 -1.378744,0.73667 -3.807168,-0.39085 -4.739085,1.60322 -0.940933,1.13947 -1.380301,2.53649 -2.779415,3.29692 0.778985,1.75176 -0.661949,3.95431 -2.73529,3.41911 -0.428567,1.08659 -1.85894,1.84057 -2.61837,3.07542 -1.577467,1.18817 0.75294,2.99972 -0.56208,3.07781 -1.329563,-0.43442 -2.631527,-1.4657 -2.62672,-1.82708 -0.423587,-1.45713 -2.056492,-1.33612 -3.07543,-2.16485 -1.043977,0.46186 -1.447834,-0.43993 -2.39515,-0.7972 -0.819358,0.10155 -0.964798,-1.1228 -1.93455,-0.7972 -0.857942,-0.49518 -2.061067,-0.57084 -2.96204,-0.68383 -1.361839,-0.13178 -1.388981,-0.46124 -2.27823,-0.91058 -0.648386,-0.14184 -1.20882,-0.44107 -1.93809,-1.02396 -0.573784,-1.09618 -1.258,-0.48937 -1.82116,-0.91058 -0.246785,0.48519 -1.20264,-0.47079 -1.48102,-0.45706 -0.22923,-0.64128 -1.306109,-0.71198 -1.59795,-1.59441 -0.848872,-0.18685 -2.026012,-0.0165 -2.73175,-0.57044 -0.544657,0.0611 -1.168556,-1.66492 -2.064536,-2.16485 -1.275682,-1.19318 -2.108206,0.48366 -3.519414,-0.11338 -1.4482658,0.30156 -3.2851156,-0.18578 -4.0993901,-1.14088 -1.5993252,-0.87324 0.4696292,-1.97156 0.7972,-3.18881 1.3064554,0.28642 2.8889011,-1.90354 0.7972001,-2.05147 -1.8338794,-0.97763 -3.0567752,1.04257 -4.3519108,0.31991 -0.3192302,-1.2921 -1.2426884,-3.44483 -0.6615993,-4.64606 2.0047914,-0.122308 0.1677305,-2.403051 -0.11338,-3.07897 -0.3468342,-1.214084 -0.4050524,-2.117153 -1.48103,-2.845117 -0.5107962,-0.139302 -0.5293203,-1.301208 -0.45706,-1.93809 0.2879724,-0.845584 -0.1485959,-1.311724 0.11692,-1.82116 z"
       style="fill:#ffd42a;stroke:#ffffff;stroke-width:0.9920736" />
  </g>
</svg>
