<?xml version="1.0" encoding="UTF-8" standalone="no"?>
<svg
   xmlns:dc="http://purl.org/dc/elements/1.1/"
   xmlns:cc="http://creativecommons.org/ns#"
   xmlns:rdf="http://www.w3.org/1999/02/22-rdf-syntax-ns#"
   xmlns:svg="http://www.w3.org/2000/svg"
   xmlns="http://www.w3.org/2000/svg"
   version="1.1"
   id="svg3943"
   viewBox="0 0 744.09448819 1052.3622047"
   height="297mm"
   width="210mm">
  <defs
     id="defs3945" />
  <metadata
     id="metadata3948">
    <rdf:RDF>
      <cc:Work
         rdf:about="">
        <dc:format>image/svg+xml</dc:format>
        <dc:type
           rdf:resource="http://purl.org/dc/dcmitype/StillImage" />
        <dc:title></dc:title>
      </cc:Work>
    </rdf:RDF>
  </metadata>
  <g
     id="layer1">
    <path
       id="Maranhão"
       d="m 0.353843,75.739321 c 1.7203976,-1.46602 4.3605158,-3.525178 5.58042,-4.55999 3.5847671,-2.808917 7.241261,-5.611058 10.597467,-8.65584 1.576128,1.085173 3.342664,-0.438814 4.041794,-2.107253 1.246939,-1.079305 0.924032,-2.957652 2.222442,-3.133027 0.714518,-0.757057 0.899886,-1.553636 1.140885,-2.16485 -0.130946,-0.992107 0.371379,-1.960251 1.023962,-1.93808 0.952258,-0.845476 1.734801,-1.149161 2.164846,-2.27823 0.63435,-0.552935 1.553052,-1.344781 1.594404,-2.61836 0.248447,-1.052768 0.346853,-1.848546 0.22676,-2.16485 0.19608,-0.828236 0.416506,-1.589056 1.140884,-2.05147 0.02331,-0.659591 0.845379,-0.707038 0.45352,-1.5944 0.166014,-0.384123 0.354685,-1.126212 0.914125,-1.25427 0.234689,-0.519441 1.367615,-0.143247 1.250721,-1.02396 0.03474,-0.849253 1.140655,-1.182462 1.140885,-1.71132 0.05906,-0.308186 0.249036,-0.967274 0.683822,-1.48103 0.586817,0.613676 0.467863,-1.998586 1.137341,-2.1613 -0.03073,-0.303971 -0.75652,-1.61444 -0.113379,-1.82471 0.331737,-0.332995 0.953079,-0.807493 1.140884,-0.7972 0.07409,-0.421158 -0.732035,-0.527705 -0.910582,-1.36764 -0.981804,-0.525721 0.04615,-1.218596 0.5669,-1.93455 0.132309,0.374707 2.449928,-0.675504 1.824706,-1.71132 2.188099,0.319063 0.485018,-1.311334 1.250722,-2.50499 -0.673393,-0.429893 -0.12113,-0.803188 -0.11338,-2.62191 1.138591,0.289225 2.138913,-1.380649 2.735289,-2.27823 0.182708,-1.583155 0.654616,-3.529578 0.92019,-4.750663 -0.213905,-0.829627 -3.359271,-1.163753 -0.860754,-1.970627 1.32732,0.173802 1.984158,-0.95255 1.99203,-2.16485 C 44.271759,9.4787112 43.418286,8.3152659 44.423711,7.1110116 45.159843,6.1216731 42.726792,5.0627152 44.671189,3.9663424 45.40726,3.1050732 45.858,3.3763579 45.808531,2.8290014 c 0.657936,-1.3487566 0.417962,-0.9282208 1.367644,-1.484567 0.171587,0.5840322 -0.742289,1.0807473 0.11338,1.027504 -0.305297,0.8120209 -1.074185,1.0839658 0.22676,0.570443 -0.527593,2.0855319 0.188067,1.3730378 0.570442,0 0.566217,-0.7187214 0.642991,-1.5123018 1.023962,-1.597947 0.854264,1.2005884 -1.368718,1.7575559 -1.137342,2.621908 1.240223,-1.8134407 0.249861,0.1819212 0.910582,-0.457062 -0.07725,0.5204844 -1.268076,1.6193423 -0.570442,1.140885 1.426745,-0.7217122 0.101187,0.055171 0.570442,0.570442 0.61581,-1.6579102 0.518145,0.062282 1.027505,-1.938087 0.332851,0.4057335 -0.645355,2.4715771 0.226758,1.367645 -0.595277,1.2001455 0.20757,0.776692 0.34014,-0.797202 0.203004,0.019714 0.921785,-1.9491364 1.367644,-0.797202 -0.425503,0.7582628 -1.540987,1.5649841 -0.226759,2.164846 -1.245228,2.1000684 0.6306,-0.0062 -0.22676,1.594404 -1.718554,0.5263533 0.825856,0.2543334 0.566899,-0.797202 -0.530008,-0.00852 0.392925,-1.235557 0.570442,-1.140885 0.143914,-0.3963181 0.147227,-2.8435265 0.683823,-2.164846 -0.09431,1.1901224 -0.528625,1.7583762 -0.570443,3.075428 0.09752,0.052634 0.354974,1.2424522 -0.623276,0.9776407 -1.272801,1.1442898 -0.496984,0.3126601 0.569333,0.1632443 0.297751,-0.7630666 1.130394,-2.8846208 0.851145,-1.254265 -0.369032,0.1206485 -0.121991,1.0759078 0.11338,0.797202 -0.257601,-1.4209014 1.244035,-1.5094979 0.683822,-0.797202 -1.173058,1.3757369 0.805526,-0.5351692 -0.226759,0.914125 -0.789458,0.8897449 1.733766,-2.2108386 0.457062,0 0.361491,-0.4412606 -0.23696,1.7785726 0.634438,0.3240077 0.318595,-0.3901457 0.316751,-0.5919837 0.846586,-1.2381327 1.423564,0.604585 -0.372347,0.75705 -0.457062,1.594404 -0.735787,1.0673887 0.429915,1.8674353 -0.11338,2.281769 0.208743,1.0415426 0.209194,-0.66147 0.797202,-1.711326 0.286573,1.4818669 0.01845,0.1306014 0.457062,0.683822 0.03605,-1.0647316 0.587864,-0.1100136 0.5669,-1.367645 0.417568,0.6465224 -0.502386,-0.7146088 0.457062,-0.566899 -0.365752,0.2307535 0.227101,-1.4211835 0.570442,0.22676 0.122615,0.1556108 0.522213,1.5042446 -1.254264,1.821164 -0.476978,1.6131616 1.026723,-1.2123047 0.11338,1.3676436 -1.054287,0.601853 0.317883,-0.027194 0.570442,-1.2542646 0.166787,0.86847 0.958241,-0.2089503 0,1.9380866 -0.421403,0.782036 0.08811,0.973597 -1.140885,2.05147 0.972885,-0.655199 0.297416,-0.3874 0.914125,0.45352 0.09966,-1.775077 1.317197,-2.103619 1.594404,-2.39161 0.331392,-1.3248492 1.641427,-1.1414367 1.707784,-2.2782256 0.852965,-0.091619 -0.181955,1.2723935 0.457063,0.797202 0.338817,2.0168956 -0.212514,-1.2531247 0.340139,-1.934544 -0.08635,-1.1263921 0.406196,0.4480661 0,1.481067 0.419497,1.2662286 0.07994,-0.7486274 0.570443,-0.343682 -0.164761,1.2179221 -0.232722,-1.6094271 0.113379,-0.457063 -0.112064,1.3461929 -0.289533,1.1523699 0.797202,0.914125 1.392081,0.5258841 1.008867,-0.2749046 1.367645,0.34014 -0.157756,-0.042571 1.335132,-1.3631708 1.254264,-1.367645 0.87506,-1.2597732 0.711503,1.3900037 0.34014,0.457063 -0.847025,0.9189321 0.05707,0.3824723 -0.910582,1.5944036 -0.752345,1.965913 1.404333,0.373862 1.594404,1.023962 0.142447,-0.261576 0.488758,1.859986 0.22676,-0.45352 0.695763,-0.5863515 0.35906,1.667468 0.683822,0.11338 1.85271,-1.6483594 -0.520496,1.775174 0.914125,0 -0.324178,-1.0965436 1.543566,1.241412 0.340139,1.023957 -0.836428,-0.381769 -1.67318,0.819766 -1.824707,0.45707 -0.10557,0.725201 -0.214514,1.389477 0.457063,1.25426 -0.695746,-1.180599 1.531008,-0.08359 0.570442,0.22676 -1.109424,0.717591 -2.123478,1.118365 -1.707784,1.14089 2.222908,-1.209703 0.695198,0.07669 2.047924,-0.34369 0.959595,-1.953221 0.202459,0.538432 0.457062,0 1.076495,-0.208589 -0.470991,-1.970638 1.367645,-1.02396 -1.739518,1.948092 0.341183,0.622584 -0.131186,0.861405 -0.894421,1.76089 2.327933,-0.03406 0.471325,1.530205 -1.015194,0.451097 0.519552,0.541878 0.570442,0.22676 0.477378,-0.523222 0.994276,1.799436 0.343683,1.0275 1.301393,0.980554 0.145449,1.183789 0.22676,3.18881 1.138013,0.0655 1.72173,1.277916 1.481024,1.48102 0.207702,0.350522 1.301421,1.284981 0.683822,2.27823 -0.06231,0.24003 -1.084714,1.416743 0.797202,2.50499 1.364282,-0.436804 3.224124,-0.926837 3.75925,-1.59441 0.13077,0.473737 0.759184,-0.495228 1.254265,0 0.106068,1.40373 -0.66892,-0.114297 -1.071644,0.780024 -0.815348,0.676099 1.871107,-0.581325 2.094496,0.857069 -1.120836,3.09167 1.377671,-1.374322 2.134101,-2.227081 1.92313,-0.262204 1.110135,-1.163675 3.162183,-2.311795 1.973027,-1.712243 1.756814,3.85911 3.59097,1.534143 3.993548,-0.411929 7.585375,3.000731 11.391128,3.98955 -0.56612,-0.302649 1.36973,0.06851 0.91058,1.36765 1.18027,-0.510961 -1.36205,-1.845969 -0.11338,-1.48103 0.90039,1.480324 3.43685,2.800775 3.98956,2.39161 1.44434,1.159171 3.79496,-1.119098 4.3297,0.11338 0.64746,-0.08172 3.25026,-0.921746 3.18881,1.02396 -0.004,-1.254099 3.37647,-0.741288 3.52462,-0.351884 -0.75971,1.102949 -1.39011,2.655192 0.23463,3.544234 0.15268,1.747612 -2.56395,2.3449 -2.27823,4.21277 -0.58377,0.779558 -2.49255,1.019772 -3.30573,1.82471 1.59779,0.110877 -1.19983,1.706985 -1.02396,2.27822 -0.84938,0.710627 -2.97444,-0.247317 -3.64587,0.91058 -0.74399,0.169016 -1.67231,-1.069203 -2.05147,0.57045 -0.61732,1.322522 -2.03496,1.921759 -2.505,3.30218 0.54975,1.492214 -0.50891,3.24886 -1.56048,4.337679 -0.656453,0.888668 -2.112043,2.482678 -1.85862,3.524511 -2.228998,-0.141259 -1.737907,3.099508 -1.02397,3.98601 1.041852,-0.04391 2.01762,1.728545 1.25427,2.62191 0.285352,1.577271 -1.992754,2.360253 -0.91413,3.64587 -0.846538,1.290986 1.602959,2.560565 1.14089,4.09939 0.588525,1.627333 1.23346,3.304864 0.718044,4.927764 0.359356,1.694636 -1.611373,2.091225 -2.425824,3.047796 -0.243231,1.557286 -1.795443,2.353899 -2.16485,3.30219 0.180556,1.707802 -0.108455,2.824861 -0.11338,4.55645 0.812309,1.379406 0.410657,2.208212 0.7972,3.41911 1.365819,0.563553 1.936508,2.027479 3.30219,2.73529 0.461636,1.522944 -0.327273,1.929325 -0.34014,3.64587 -0.304375,1.016436 -0.192766,3.319958 -1.625584,4.246994 -0.783192,1.114515 -2.437769,1.217225 -3.779374,0.913045 -1.543285,0.34061 -2.755003,0.81897 -3.82487,1.33096 -1.190553,0.56416 -1.797845,-1.773607 -2.731745,-1.48103 -1.129802,-1.087445 -2.655504,-1.119598 -3.762794,-0.683819 -1.46108,1.310209 -2.354509,0.179321 -3.87263,0.914119 -0.803175,0.66408 -1.138917,1.23365 -1.367644,1.13735 -1.052695,1.05167 -1.344576,2.44831 -2.391606,3.19235 0.08079,2.12891 -2.028775,1.33357 -3.302188,2.50498 -1.176506,0.74984 -2.000063,1.67655 -3.075428,2.73529 -0.638169,1.92777 -1.681446,0.5012 -2.962049,0.91058 -1.205323,0.76972 -1.633416,1.71407 -3.078971,2.05147 -1.420128,0.0526 -2.922392,0.80212 -3.87263,1.02396 -1.201026,0.34807 -2.535358,0.75248 -3.075428,1.82117 -0.786642,0.0623 -0.754477,1.11086 -1.254265,1.59794 0.232351,0.92962 -1.208382,2.10913 -0.453519,2.73175 -0.808335,0.74689 -0.513043,1.72708 -0.688937,2.38393 -0.23074,1.68189 -0.848186,2.5894 -1.702669,3.93974 -0.174655,1.62515 -1.259694,1.91677 -1.270733,3.40719 -0.347368,1.1461 -0.498048,2.51371 -1.124416,2.57439 -0.25909,1.56415 -1.243482,2.09747 -2.161303,2.84867 -0.24285,0.91847 -0.804563,1.55061 -0.914125,2.73175 0.775322,1.26971 1.145841,2.27416 1.140884,3.53249 0.846926,1.00059 -0.08427,2.41462 0.570443,3.18881 0.235246,0.35199 1.969207,1.49473 1.594404,2.27822 -0.101134,0.64327 -1.182044,1.99881 -0.570443,2.84867 -0.532772,1.26384 0.656741,2.08919 -0.343682,3.19235 -0.816731,1.22076 0.602099,2.36826 -0.34014,3.52895 0.211946,1.51733 -1.189843,2.6521 -1.415665,3.92668 -1.208802,0.47619 -1.232314,-2.01931 -3.528609,-0.52475 -0.806242,-1.71413 -3.467785,0.65611 -3.715111,-1.57722 -1.481305,-1.05063 -1.735671,-2.69905 -1.481024,-4.21632 -0.468463,-1.09291 -1.483541,-1.34175 -2.4475,-2.27822 -1.293031,-0.46318 0.507804,-2.64602 1.29233,-3.29037 -0.141416,-1.29153 -1.727011,-1.22759 -1.576576,-2.52035 -1.795078,-0.32982 -2.055191,0.2847 -2.962048,-1.5944 -1.232144,-0.1081 0.624235,-2.00822 -0.683822,-2.27823 -0.0045,-1.4241 -1.705566,-0.56394 -1.367645,-1.70778 0.296316,-0.55395 -1.814992,0.14052 -2.278226,-0.45707 0.691196,-0.52743 -0.208563,-1.08192 0.797202,-1.25426 0.471027,-0.87156 0.635231,-1.52315 0.910582,-2.04792 1.416158,-0.0333 1.018007,-1.69499 0.683822,-2.50853 1.301673,-0.76401 -0.168473,-1.21281 0.343683,-1.93455 -0.09036,-0.31922 -0.0907,-0.52314 0.340139,-0.68382 0.295072,-0.18869 0.913855,-0.83948 0.570443,-1.71132 1.320606,0.19794 0.477261,-1.88353 1.481024,-1.70779 1.127354,-0.47391 2.509977,-0.9064 3.87263,-1.25426 1.259128,-1.26242 -0.32765,-2.79715 1.140885,-3.87263 0.03874,-1.40573 -1.170232,-2.39607 -2.164847,-2.96205 -0.782584,-0.19862 -2.305679,-0.0362 -2.848668,0.57044 -0.376569,0.0317 -1.439816,0.68318 -1.824707,0.22676 -0.652909,0.64347 -1.43704,0.835 -1.821164,1.71133 -0.601654,0.87664 -2.169637,-1.60364 -1.938086,-1.25427 -0.248054,-0.83596 -0.771376,-0.94015 -1.367645,-2.16484 -0.671281,-0.40327 -1.403963,-0.67433 -1.137341,-1.70779 -0.102712,-0.10589 -1.624472,-0.64582 -0.910582,-0.91412 -0.41606,-0.23903 -1.12121,-2.14336 -0.914125,-1.02396 -0.598103,-0.0135 -1.078075,-1.55438 -1.250721,-2.05147 -1.181789,0.12095 -1.525881,-2.09163 -2.556593,-1.83841 2.19546,-0.10598 2.058047,-2.99512 -0.178696,-2.71804 -0.575305,1.79485 -3.591605,-1.51261 -2.051466,-2.05147 1.481443,0.2379 2.73688,-1.89558 3.075428,-3.36163 0.234362,-1.63613 0.31708,-3.11159 0.570442,-4.840689 0.514299,-1.474708 1.373372,-2.881094 1.140885,-4.21277 0.584863,-1.804699 1.034526,-3.354035 0.05397,-5.109939 -0.417221,-1.755645 0.06808,-3.351267 -0.247585,-5.078229 -1.385202,-1.581144 -0.253321,-3.293153 -0.844501,-5.114129 -1.143194,-1.445253 -3.186932,-2.483724 -5.047047,-2.717477 -1.82856,0.04109 -0.948598,-3.218941 -3.371427,-2.601186 -1.427718,1.205243 -3.5651664,0.429123 -5.013515,-0.57044 -1.311829,-0.637163 -3.8691755,-0.801616 -4.55645,0.68382 -0.012609,2.620713 -2.112229,0.583744 -2.96205,1.93808 l -0.22676,-0.11338 0,-4e-5 z m 49.213938,-72.4568006 0,-0.11338 0,0.11338 z m 8.772765,4.556453 c -0.200937,-0.507575 -0.430474,-0.1029188 0,0 z m 4.09939,-1.250722 c -0.0654,-1.5765321 0.683959,2.3012092 0,0 z m 0.116923,-0.116923 c -0.215744,-0.1606257 -0.121651,0.3877848 0,0 z M 52.41645,5.2206074 c 0.312369,0.1298494 -0.132212,-0.3204352 0,0 z m 0.113379,0 c -0.614517,1.220796 0.04442,0.487776 0,0 z m 15.037002,7.0614336 c 0.990485,0.07707 -0.420985,0.756627 0,0 z m -0.11338,-1.48102 c -0.311517,0.129035 0.129035,-0.311517 0,0 z M 49.567781,5.1036844 c -0.260371,1.1502091 0.894198,1.5923375 -0.22676,0.230303 l 0.304709,-0.230303 -0.07795,0 10e-7,0 z M 72.466966,20.144231 c -0.257886,-0.123926 0.405577,-0.0286 0,0 z M 65.288605,6.4713284 c -1.169567,-0.2829166 0.06212,-0.074822 -0.683823,0.570443 -0.66833,0.9535371 -1.937689,0.055329 -1.594404,-0.910582 1.792215,0.3352242 0.718923,0.1205315 0.792088,-0.6761505 0.614096,0.2102147 2.406778,-0.2862461 1.829821,1.0162895 -0.646323,0.7079796 0.309135,-0.9453049 -0.343682,0 z m 1.707783,3.8761736 c 0.121651,-0.3877848 0.215744,0.160626 0,0 z M 48.883959,4.9903044 c -0.05853,-0.3482125 0.348212,0.058533 0,0 z m 20.847718,9.1164466 c 0.129592,-0.363084 0.39725,-0.151985 0,0 z M 52.643209,5.6741264 c -0.311713,0.3694107 0.124999,0.2802939 0,0 z m 1.140885,-0.453519 c 0.199437,-0.4093239 0.349026,0.00496 0,0 z m 12.415092,5.0099716 c 0.153022,-1.5235168 2.540851,-2.1613319 0.797202,-0.5668996 -0.0052,0.1463872 -0.670444,1.1561866 -0.797202,0.5668996 z m 13.672901,14.696862 c 0.102513,-0.588855 0.469934,-0.332925 0,0 z M 63.010378,7.3854534 c 0.519779,-0.082825 0.434714,0.5991257 0,0 z m -7.975563,-0.116923 c 0.642235,-0.4450868 -0.129317,-0.5145637 0,0 z m 14.470102,7.0649806 c 0.111477,-0.529659 0.209479,1.10392 0,0 z m 2.962049,3.98601 c -0.08687,-0.857055 0.538599,0.115797 0,0 z m -4.786755,-6.15086 c 0.484191,-0.832287 0.518225,0.623431 0,0 z M 56.40246,7.6122134 c 0.210121,-0.7479433 0.364834,0.4226843 0,0 z M 72.009903,19.116721 c 1.121688,-0.757685 0.753812,0.07449 0,0 z m -0.11338,0.68382 c 0.439975,-0.948269 0.707364,0.707204 0,0 z M 61.642734,7.7255934 c 1.185024,-3.0824652 0.249829,0.5212505 0,0 z m -11.73127,-3.759251 c 0.587946,-0.837742 0.206782,1.2902792 0,0 z m -0.343683,-1.254264 c 0.935771,-0.9024688 0.100425,1.3838929 0,0 z M 69.845057,14.903951 c 0.305903,0.367512 0.31436,-0.06612 0,0 z m -0.34014,0.3862 c 0.15444,0.543262 0.959324,-0.06431 0,0 z m -2.051466,-4.829269 c 0.107851,-1.5935409 1.148852,0.06732 0,0 z M 63.80758,6.3579484 c -0.364344,0.6973907 0.06678,0.2138095 0,0 z m -0.113379,0.343683 c -1.031039,-1.0839627 0.79849,1.6348304 0,0 z m 6.494539,8.5424596 c -0.287229,-2.144022 1.186379,0.03663 0,0 z M 54.467916,4.5367854 c -2.017991,0.8785607 -0.140625,-1.6504365 0,-0.11338 l 0,-0.116923 0,0.230303 0,0 z m -2.278226,0.340139 c -1.187863,-0.1644539 -0.08696,-1.1420366 0,-0.683822 0.243714,0.1277993 0.02715,0.5705216 0,0.683822 z m 14.693319,4.786755 c 1.338493,-1.8267626 -0.849365,0.6460146 0,0 z m -2.047924,-3.53249 c 0.517644,-0.037335 0.03733,-0.5176438 0,0 z m 0.11338,-0.22676 c -0.209206,-0.1557584 -0.117965,0.3760341 0,0 z m -0.11338,0 c 0.379495,-0.1234105 -0.160622,-0.2132418 0,0 z"
       style="fill:#5599ff;stroke:#ffffff;stroke-width:0.9920736" />
  </g>
</svg>
