<?xml version="1.0" encoding="UTF-8" standalone="no"?>
<svg
   xmlns:dc="http://purl.org/dc/elements/1.1/"
   xmlns:cc="http://creativecommons.org/ns#"
   xmlns:rdf="http://www.w3.org/1999/02/22-rdf-syntax-ns#"
   xmlns:svg="http://www.w3.org/2000/svg"
   xmlns="http://www.w3.org/2000/svg"
   version="1.1"
   id="svg3578"
   viewBox="0 0 744.09448819 1052.3622047"
   height="297mm"
   width="210mm">
  <defs
     id="defs3580" />
  <metadata
     id="metadata3583">
    <rdf:RDF>
      <cc:Work
         rdf:about="">
        <dc:format>image/svg+xml</dc:format>
        <dc:type
           rdf:resource="http://purl.org/dc/dcmitype/StillImage" />
        <dc:title></dc:title>
      </cc:Work>
    </rdf:RDF>
  </metadata>
  <g
     id="layer1">
    <path
       id="Minas Gerais"
       d="m 1.4964286,98.2061 c -0.3191014,-0.835885 0.1108584,-3.924336 1.8247,-3.419106 -2.59229706,-3.29287 2.7733452,-0.62861 1.1025935,-2.581446 -0.7085722,-1.510058 1.5229884,-2.899269 1.9728365,-4.139854 0.8625739,-1.532308 3.1555602,-0.557942 3.9138964,-2.568971 -0.273522,-1.728736 0.805446,-2.750947 1.896824,-4.038939 0.745764,-1.669276 2.384361,-2.915673 4.351032,-2.652429 1.580822,-0.624628 2.846218,-1.476174 4.761868,-0.763141 0.898741,0.561048 3.67041,-0.554443 3.302976,-0.913344 1.621557,0.232587 1.77655,-1.695588 2.847884,-1.024746 0.311692,2.822233 2.094211,2.309022 3.19235,0.91058 1.375824,-0.972664 1.182063,-2.651927 2.39161,-2.73174 1.027766,-0.238561 1.659985,0.260755 2.84867,-0.7972 0.831764,-2.260437 2.594352,0.864148 3.52894,0 1.311094,0.126439 2.889638,-1.116841 3.75925,-0.11693 1.273573,0.30995 1.939692,0.11641 3.41911,0.34368 0.882696,0.289996 1.269041,-1.322973 2.84867,0 0.616791,1.473706 2.183077,0.321645 2.96205,1.48103 0.523299,0.565528 1.0788,0.608832 2.27823,0.22676 0.158825,-0.296575 0.792404,-1.459567 1.25426,-0.91058 0.916652,-0.686601 1.214519,-0.460898 2.116086,-1.473628 1.116264,0.335582 0.210706,-1.424856 0.959344,-1.375042 0.52771,-1.285645 1.207643,-0.214195 1.48102,-0.91058 0.648027,-0.209643 1.341059,-0.762332 1.70779,-0.91059 0.596914,-0.286929 0.711366,-1.272717 1.93808,-1.25426 0.406956,-0.809882 -0.375135,-1.540149 -0.68382,-2.50853 0.120563,-0.364186 -0.940289,-1.385668 -0.11338,-2.04792 -0.264096,-0.509153 0.624134,-1.996215 1.25072,-2.62191 0.539635,-1.136812 -1.242162,-3.273056 -2.96204,-2.27823 -0.791968,0.461255 -1.484617,-1.365944 -1.36765,-1.82116 -0.03653,-0.316912 0.117138,-1.715811 0.57044,-1.48103 0.843575,0.58847 0.790264,-0.08639 1.25427,-0.68382 -0.252679,-0.772718 0.602865,-0.918364 1.02396,-1.36764 0.241253,-0.543589 0.113894,-0.85828 0.57044,-1.14089 0.929265,-0.03878 0.844006,-0.871762 1.36765,-1.25072 0.43254,0.236179 1.089837,-0.411982 1.13734,-0.68382 0.318166,0.0095 1.070751,-0.598434 0.45706,-0.7972 0.511468,-0.584829 -0.477256,-0.984402 -0.57044,-1.59441 -0.587232,-0.144887 0.04373,-1.214743 -0.5669,-1.71132 -0.36866,-0.728488 0.03531,-1.335255 -0.45706,-1.82117 -0.01449,-0.601736 -0.512076,-0.919456 -1.02397,-1.14088 -0.298811,-0.636794 -0.485513,-0.525393 -1.14088,-0.68382 -0.685283,-0.658978 -0.789085,-0.38679 -1.36764,-1.59441 0.235999,-1.62672 1.527653,-3.120062 2.16484,-4.32969 0.14504,-1.230003 -0.811607,-2.105863 0.11338,-2.84513 0.401224,-0.402005 -0.03692,-1.863172 1.14089,-1.14088 0.899682,-0.430478 1.628406,-1.019363 1.36764,-1.13734 0.6097,-1.143155 0.784861,0.78449 1.93454,-0.34368 1.932085,-0.556555 4.904945,-0.307478 4.10294,-2.61837 -0.773933,-1.806429 -0.572241,-3.084382 -2.27823,-3.98955 -0.574691,-2.569831 2.83715,-2.948412 1.25072,-4.66983 -1.233651,-0.659999 -0.979265,-1.472441 -0.45352,-3.07543 -1.235998,-1.96674 2.452155,-1.817306 3.64587,-0.79721 0.835934,1.10741 3.73961,0.04117 2.50499,-0.91412 -0.108651,-1.176624 0.406314,-2.757721 -0.57044,-3.64233 0.79973,-1.792381 1.746722,-1.825805 3.1888,-0.11692 1.835581,0.268706 0.202525,2.31071 1.93809,2.39515 1.382469,0.602566 1.453212,-0.610709 2.84867,0.11338 0.805976,-2.160488 2.416529,0.239344 1.93809,1.82116 -1.40488,0.799785 -0.699455,2.655179 -2.39515,2.62191 0.58019,2.011237 1.010389,0.580333 2.05146,0.11338 0.168665,-1.649505 2.322835,-0.203585 2.84867,-1.36764 1.583942,-0.03893 1.990718,0.01504 2.84867,-1.25427 0.07254,-0.549961 1.10158,-0.756086 1.48103,-1.70778 1.105222,0.01573 2.028162,0.233161 2.3916,-0.34014 1.111673,-0.813114 1.568646,-1.334265 2.16485,-1.71133 0.696735,-0.518856 1.694828,-2.082637 2.873401,-1.426006 1.18112,-0.06036 1.90427,-1.6900893 2.48025,-1.762804 0.84771,-0.4280542 2.44684,-1.1852737 2.16485,-1.36764 0.52908,-0.8516217 0.0521,-0.9590831 0.91058,-1.36764 1.29732,-0.1987865 1.49933,-1.1586981 2.27823,-1.2507297 0.17317,-0.5377302 1.52544,-1.1693078 2.16484,-1.48102 0.86523,-0.015086 2.49205,-0.9217768 2.96205,-1.25426 1.12607,-0.4827217 1.91807,0.5032451 2.27823,-0.45707 0.84221,1.0687718 1.43899,0.5837801 2.16484,0.68383 0.48616,0.727387 1.78628,-0.6285234 2.27823,0.57044 0.50989,-0.3078222 1.46289,0.1475738 1.82471,0.34014 1.33453,-0.5012172 0.55378,1.5533104 -0.19766,2.8379692 -0.69715,1.5565215 -0.29643,2.7272106 -0.37279,2.8593605 0.54021,0.731084 2.75366,0.4981425 2.84867,1.36765 0.92439,0.149782 2.92318,0.403084 3.07543,1.48102 0.92887,-0.368184 0.71668,-1.02753 1.5944,-1.5944 1.83503,-0.9401313 4.40922,-1.7177162 5.9241,-0.57044 0.82636,-0.2902464 2.56995,0.423757 2.96205,1.25426 0.60512,-0.06343 2.4161,2.152333 3.30219,2.05147 0.50619,1.028729 1.46645,0.401206 2.39515,1.3641 1.67931,0.389347 2.28175,2.495594 3.75925,2.05146 0.97435,1.637863 2.58137,-0.586167 3.1888,0.68383 0.58884,1.712465 2.61361,0.710392 3.64587,0.68382 1.81436,-1.780915 3.46626,-0.153604 5.0241,1.598048 2.02526,2.197324 5.45875,3.702905 4.91608,7.201652 -0.50558,2.007094 2.80941,1.483789 3.6158,1.34071 1.90199,0.03496 2.69667,-2.633362 3.87263,-0.91413 1.4896,-1.14192 1.25737,-0.05237 2.62191,0.11693 0.36415,-1.378665 1.64319,0.825301 2.27823,0.91058 0.4702,1.921461 1.82587,-0.485469 2.84867,0.45352 0.26443,1.815157 3.51454,-0.54114 3.75925,1.36764 0.96697,0.503432 0.32835,1.045967 1.5944,0.91058 0.98088,-0.134269 0.32963,0.218878 0.91058,0.80075 0.18472,0.318917 1.05084,1.067746 1.71133,0.68028 0.50403,0.115885 1.82048,1.69623 1.25072,2.62191 -0.38551,-0.0044 -0.48823,2.357358 -1.25072,2.62191 -0.61597,0.228878 -1.43376,1.460684 -1.82471,2.50498 -0.42837,-0.508206 -1.65603,0.961429 -1.70778,1.70779 0.42483,1.55144 -2.06288,-0.630316 -2.16485,1.36764 0.0758,1.515464 -1.75065,3.400467 0.57044,3.18881 0.49171,1.394211 -0.96318,2.184402 -1.93808,1.36764 -1.75501,-0.193882 -2.20994,0.459632 -2.96205,2.16485 -0.67442,1.423955 0.14084,2.933172 -0.34014,3.98601 0.43801,1.127905 -1.05463,2.010837 -0.57044,3.07897 2.00789,0.0023 1.65391,1.732277 2.73529,2.84512 0.55991,0.223466 1.56478,0.785663 1.93454,1.25427 0.75622,1.326743 2.26861,1.322084 2.05147,3.07543 0.31674,0.485699 -1.07431,2.866278 -1.14089,2.27822 -1.09962,-1.205786 -3.01894,-0.100079 -4.21277,-1.25072 -1.71258,0.420979 -1.41391,2.132029 -3.07897,2.27823 -1.07033,-0.196927 -1.12855,-1.13477 -1.93454,-1.02751 -2.45977,0.199322 0.10673,1.26572 0.86548,2.988632 -0.81573,1.365062 -2.00026,-1.342622 -2.69019,-0.02658 -0.62039,0.31414 -1.64532,0.490317 -2.04792,0.68382 -0.87992,0.634236 -1.17583,1.771685 -1.59441,2.84867 -0.52812,1.761195 -0.45724,1.957593 2.16131,2.05147 0.1558,1.500884 -0.99196,3.423108 0,3.41557 1.42859,0.193221 1.9184,2.233828 1.36764,3.07897 -1.70571,0.710898 -2.92758,-0.537328 -4.35756,-0.57044 -1.76808,0.94818 0.0911,1.065614 0.71169,1.48102 0.86946,0.479375 1.6344,1.523114 2.27823,1.70778 -1.93384,0.694 0.14363,1.58309 0.2303,2.05147 1.29859,0.362978 1.31781,1.776272 1.25072,2.50499 0.0214,0.834599 0.27187,0.892219 0.11692,2.05146 -1.33669,0.637815 0.38566,2.847597 -1.71132,2.27823 -0.14362,0.783206 -0.64727,1.666058 -1.59441,2.50498 -1.33394,0.541013 -1.02032,2.118977 -0.7972,2.848666 0.093,1.67678 -1.41918,1.95552 -2.39161,2.84867 -0.16978,1.47139 -0.63655,3.27382 -1.70778,4.10294 -1.77009,0.58554 -5.55799,-1.18227 -6.04102,0.91058 -0.20243,1.04889 -2.27475,1.22117 -1.02396,2.61836 1.27184,0.56792 0.29728,2.60342 -0.34014,3.41912 1.60588,0.30822 -0.12848,1.2071 -0.11692,2.05146 0.40329,0.75275 -1.51169,0.98575 -1.02397,1.93455 -1.02875,1.06419 -0.55531,1.6864 -2.3916,1.71132 -1.37182,-0.0433 -1.78823,1.00548 -0.22676,1.59441 -0.65786,0.42175 -1.22931,1.36553 -1.93809,2.16484 -0.14807,1.14216 0.23254,1.44622 -0.57044,2.61837 -0.0212,1.02962 -0.20743,1.41824 -0.7972,2.05146 0.43502,1.1104 -0.34492,1.90135 -1.13734,2.73529 -1.31138,1.30907 0.88367,1.15538 1.25072,1.70779 -0.48241,1.50249 -3.0682,1.21288 -4.44307,2.27822 -2.39805,1.32005 -5.45722,2.26121 -7.85864,3.75925 -0.65609,0.77776 -3.17692,2.11425 -2.16485,0 -0.99959,-0.0361 -1.55515,-0.0717 -2.27823,-0.34014 -1.49958,-0.71656 -2.54595,1.31404 -3.98955,0.91059 -1.21751,0.13949 -1.60964,0.23671 -2.27823,0 -0.50628,0.19726 -1.65292,0.67637 -2.04792,0.11338 -1.39866,0.24864 -2.50369,0.83893 -3.98955,1.48102 -1.00052,0.0164 -1.84272,0.21666 -2.16485,0.91058 -0.91541,0.23728 -2.01751,1.48021 -2.50499,0.57044 -0.84982,0.41672 -1.89021,0.33474 -2.96204,0.22676 -0.51135,1.28256 -1.71605,1.10466 -2.84867,1.36765 -0.47931,1.43254 -2.55718,-0.16823 -3.30219,1.48102 -1.33692,0.2666 -2.55162,0.97098 -3.98955,0.91058 -1.52144,0.25262 -1.883079,1.52063 -3.41557,1.93809 -0.199406,0.6481 -2.544805,1.4593 -2.848671,0.57044 -0.357151,-1.24895 -2.795905,1.7937 -2.05147,0.11338 -0.10259,-0.88447 -2.948851,1.39304 -1.70778,-0.45706 -2.133933,-1.39301 -0.207264,1.38335 -1.25426,1.02751 -2.167502,1.09439 -0.602968,0.89787 0.22676,1.70778 0.283755,1.5464 -0.645546,0.14925 -0.79721,1.36764 -0.730921,0.32736 -1.266254,-0.34276 -2.04792,0.68383 0.01132,-1.65416 -1.059224,-0.50962 -2.05147,0.22676 -2.6009,1.17174 -1.608598,-0.89589 -3.641622,-0.16117 -0.531913,0.0247 -2.955845,0.74777 -2.512778,-0.63604 0.679921,-1.37097 0.712027,-1.5945 -0.7972,-1.93808 -1.460388,-0.042 -0.549489,-1.76258 0.23031,-1.02397 0.18559,-0.63889 -0.322481,-1.71173 -0.23031,-2.16484 -1.031987,-0.48985 -1.924722,-0.91317 -2.3916,-1.70779 -1.090492,0.11455 -1.712084,-0.83469 -2.05147,-1.5944 -0.959493,-1.07463 0.159969,-1.955 0.34368,-3.07897 2.249168,-0.65627 0.105803,-1.42309 -0.91058,-1.70778 1.457827,0.18834 0.139092,-1.61003 1.82116,-1.02397 -0.745066,-1.20977 -0.798691,-1.81934 -0.91058,-2.96204 -0.585292,-0.73787 1.159774,-1.50787 0.7972,-2.73529 1.127829,-0.21715 1.493173,-1.10294 1.93809,-2.27823 -0.44526,-0.65779 0.361338,-2.14948 -1.14088,-2.27823 -1.179142,1.22611 -0.952145,-2.17336 -2.05147,-0.68382 -0.613445,0.42241 -1.766464,-1.16734 -2.73175,0.11338 -0.956277,0.74873 -3.400729,0.95622 -2.27822,-0.68382 -0.649269,-0.81753 -1.301231,-1.88547 -1.14089,-2.50499 -1.643502,0.0477 -0.636279,-1.92176 -1.25426,-2.3916 0.475651,-2.06049 -2.356837,-2.27017 -1.262811,-4.19231 -0.207389,-1.32453 0.903109,-2.0316 1.833251,-2.52899 0.199887,-1.11565 -0.72404,-1.84956 -0.91058,-2.84867 -1.70437,-0.33225 -2.527609,-1.45737 -2.27823,-2.27823 -0.624408,-1.24028 1.706236,-2.20981 0.57045,-3.41911 -0.07502,-1.68727 -3.660886,-1.39827 -2.84867,-3.07542 -0.985409,-2.224751 -2.778144,1.13657 -3.87263,0.34014 -0.499035,-1.33255 -3.213154,-1.08264 -3.64587,0 0.703708,1.81307 -1.283574,1.72528 -1.82471,0.11692 0.05571,2.00694 -2.59781,2.50895 -3.30219,0.68382 -2.166929,-2.34176 0.364198,1.65431 -1.5944,1.13734 -1.526446,-0.99305 -3.62203,0.11559 -5.3572,-0.11338 -0.944501,1.34582 -4.349333,-0.88003 -4.32615,1.48103 -1.579334,0.71746 0.988138,4.14835 -1.204013,3.48994 -1.452454,-0.66697 0.227735,-6.25013 -2.545344,-4.19709 -0.295172,2.34673 -3.136182,3.13503 -3.438243,0.3969 -2.003767,-1.66436 2.121655,-4.44618 -0.5612,-4.13283 -2.22646,1.58542 -3.433846,-2.209732 -5.46704,-0.57044 -2.051894,-0.35981 -3.915804,0.46973 -5.834895,-0.16707 -1.526401,-0.599206 -3.040781,-1.122466 -4.765801,-0.896144 -1.839888,0.341937 -2.88305,-2.63159 -4.893364,-0.988256 -1.0163128,1.60711 -2.9769574,2.00879 -4.6698304,2.62191 -1.2373005,0.13039 -3.3171337,3.44282 -2.73529,0.57045 -0.078739,-1.18928 0.1834074,-2.448523 -0.45706,-3.64588 z"
       style="fill:#ff0000;stroke:#ffffff;stroke-width:0.9920736" />
  </g>
</svg>
