<?xml version="1.0" encoding="UTF-8" standalone="no"?>
<!-- Created with Inkscape (http://www.inkscape.org/) -->

<svg
   xmlns:dc="http://purl.org/dc/elements/1.1/"
   xmlns:cc="http://creativecommons.org/ns#"
   xmlns:rdf="http://www.w3.org/1999/02/22-rdf-syntax-ns#"
   xmlns:svg="http://www.w3.org/2000/svg"
   xmlns="http://www.w3.org/2000/svg"
   xmlns:sodipodi="http://sodipodi.sourceforge.net/DTD/sodipodi-0.dtd"
   xmlns:inkscape="http://www.inkscape.org/namespaces/inkscape"
   width="210mm"
   height="297mm"
   viewBox="0 0 744.09448819 1052.3622047"
   id="svg3455"
   version="1.1"
   inkscape:version="0.91 r13725"
   sodipodi:docname="MS-ink.svg">
  <defs
     id="defs3457" />
  <sodipodi:namedview
     id="base"
     pagecolor="#ffffff"
     bordercolor="#666666"
     borderopacity="1.0"
     inkscape:pageopacity="0.0"
     inkscape:pageshadow="2"
     inkscape:zoom="0.35"
     inkscape:cx="375"
     inkscape:cy="520"
     inkscape:document-units="px"
     inkscape:current-layer="layer1"
     showgrid="false"
     inkscape:window-width="1366"
     inkscape:window-height="705"
     inkscape:window-x="-8"
     inkscape:window-y="-8"
     inkscape:window-maximized="1" />
  <metadata
     id="metadata3460">
    <rdf:RDF>
      <cc:Work
         rdf:about="">
        <dc:format>image/svg+xml</dc:format>
        <dc:type
           rdf:resource="http://purl.org/dc/dcmitype/StillImage" />
        <dc:title></dc:title>
      </cc:Work>
    </rdf:RDF>
  </metadata>
  <g
     inkscape:label="Camada 1"
     inkscape:groupmode="layer"
     id="layer1">
    <path
       style="fill:#ffd42a;stroke:#ffffff;stroke-width:0.9920736"
       d="m 4.097421,43.436459 c 1.4358924,-2.985638 2.8715037,-5.971406 4.21631,-8.99953 2.583411,0.598706 0.7285482,-2.284342 0.328761,-2.60714 1.1434964,-3.687404 2.286993,-7.374809 3.430489,-11.062213 2.869112,0.02115 0.809064,-0.753797 -0.34014,-1.824707 -0.273485,-1.981537 -1.572369,-3.577393 -2.39515,-5.353654 1.3886,-0.278049 -0.7482236,-2.326077 -0.91058,-3.419111 C 8.4086931,9.3158127 7.7124955,9.2254257 8.997551,8.5757 c 0.7452291,0.223305 0.9126117,1.957917 1.13734,2.508529 -0.6156195,1.232585 1.373912,0.506684 1.14089,1.707784 0.142211,0.79289 1.910037,1.12827 2.354494,1.995228 0.42585,-0.154814 1.101404,-1.363572 1.975196,-1.084646 0.502909,-0.503201 2.000688,0.09206 1.5944,-0.683822 1.035784,-0.26548 2.588577,-0.05074 3.30219,-1.137342 0.07604,-0.321899 2.081127,-1.747413 1.25427,-2.164846 0.102042,-1.0119538 2.178617,-1.1555441 2.16484,-1.9380874 0.946604,-0.6713874 -0.43398,-1.732132 1.14089,-1.707783 0.06077,-0.9986723 1.259577,-1.7539258 1.82116,-1.023962 0.397303,-0.2435239 1.030271,0.2066789 1.70778,-0.230303 1.254396,0.1527899 1.166691,-0.9302357 1.82471,0 0.475204,0.6622265 2.019646,-1.2659525 1.93454,-0.683822 0.731082,0.3138689 1.412475,-0.6764968 1.48103,-0.910582 0.96122,0.2857062 0.914954,-0.8817807 2.05146,-0.570442 0.67555,-0.6642647 1.690158,-0.3345358 2.27823,0.230303 -0.504369,0.6043905 0.576562,0.7783203 1.25427,1.137341 0.807104,-0.022072 0.544765,-0.1351278 1.48102,0.457063 0.634445,-0.098007 0.787443,0.5997574 1.82116,0.683822 0.95268,0.2664775 1.40744,-0.076669 2.16485,0.566899 0.621866,0.176902 -0.05508,1.0488645 0.91058,1.367644 0.233841,0.8488061 1.156315,0.2435806 1.59795,1.0275054 1.070789,-0.1458399 1.957287,0.7029229 2.04792,0.683822 0.960173,-0.1920495 0.731589,0.2108579 1.36765,0.566899 0.151434,0.3724972 0.496014,0.5330273 1.25426,0.797202 0.139856,0.698134 1.362384,-0.147782 1.70778,0.116923 0.823257,0.215458 0.989053,-0.08309 1.59441,-0.116923 0.507261,-0.8345204 2.146011,0.398322 2.73529,-0.566899 1.102599,-0.303272 1.188503,-1.8361369 2.27822,-1.481024 1.069524,-0.5981365 1.899632,-0.6097281 2.96205,-0.4570624 0.505205,0.6498519 1.290416,0.9118466 2.05147,1.5944044 -0.138742,0.3727292 -0.08986,1.471103 0.91058,1.481024 1.200968,0.114391 2.289868,-1.5547316 3.18881,-0.683822 0.729133,0.231417 1.565758,-0.6672292 1.36764,-1.707784 0.02782,-0.9621014 1.542481,-0.6534429 2.16485,-1.5944044 1.399222,-0.8654606 1.347471,-2.0734186 2.583308,-2.7910644 1.439732,-1.9951408 1.800919,1.0721259 1.385696,2.467363 -0.472469,1.5274284 0.80794,4.7917518 -1.464024,4.5400148 -1.779588,0.08654 -2.158705,2.209578 -2.96204,3.528947 -0.376394,1.177201 1.088848,0.436955 1.36764,0.683822 0.406341,0.276345 0.832867,0.631726 1.25426,1.027505 0.350818,0.42138 1.760164,0.765728 2.27823,0.11338 0.920556,-0.306524 1.435566,0.651801 2.50499,0.797202 1.068613,0.600617 1.035446,-1.492237 1.59794,-0.570443 0.865019,0.493855 2.807564,-0.446189 3.75925,0.683823 3.122564,0.277556 0.635036,-0.241961 1.023248,1.816811 0.568995,1.252445 -0.10619,3.678867 1.821882,3.650223 0.660675,-1.533246 3.057881,-0.792175 4.276086,-0.262496 0.488704,1.590845 -1.92893,1.143478 -2.168379,2.390237 -1.404879,0.925859 -1.104738,2.713337 0.396473,2.998437 1.314299,0.892258 3.116592,0.612613 4.674179,0.684541 0.943098,-1.119181 2.481976,0.009 3.07543,0.91058 0.772501,1.109273 0.733305,1.213799 1.93809,1.71133 0.61316,-0.251227 1.9641,-0.04194 2.27822,0.68382 1.16807,0.297741 0.73871,1.293471 1.70779,1.13734 0.59434,0.507639 1.09572,0.729 1.48102,0.34368 0.8714,0.200345 1.32141,0.811439 2.05147,1.48103 0.35834,-0.0164 1.40073,0.678187 1.82116,0.7972 0.44643,0.23 1.67361,0.965896 2.73529,0.5669 1.00431,0.422283 1.81053,0.533492 2.84867,0.7972 0.13344,0.777999 1.59411,0.501242 2.05146,1.36764 0.71717,0.397763 1.61815,-0.05722 2.61837,0.79721 1.17996,0.01839 1.68663,1.32576 1.92144,1.819206 1.35632,0.165299 0.81803,1.544606 1.49767,2.967544 -0.98841,-0.162928 -2.25678,1.916004 -1.80796,2.978798 -0.35037,1.082544 1.08502,2.507792 0.21356,3.742502 0.51849,1.645115 0.0883,2.992077 -0.67385,4.639752 -1.0844,2.079551 -4.32731,0.74103 -5.25025,2.765368 -0.90087,1.34089 -1.81382,2.762273 -3.10604,3.758141 -1.46383,1.084885 -1.26999,2.966964 -1.11027,4.557559 0.97421,2.057824 -2.34125,1.269702 -2.50499,3.07543 0.14024,1.640425 -2.95333,1.127869 -1.48102,2.96205 0.68241,1.486179 -0.50432,2.450269 -1.02751,3.64587 -0.30059,1.978399 -2.6262,0.529993 -3.07543,2.16485 1.58269,1.018828 0.77926,3.270794 -0.91058,3.64587 -0.25748,2.116581 -2.779294,2.338082 -2.924408,4.520331 -0.806088,2.023125 -2.612522,3.332027 -4.480712,4.139049 -1.497224,0.908917 -3.387434,1.489397 -4.329689,2.96205 -1.605864,0.604632 -3.421663,1.22427 -4.21631,2.84513 -0.189914,1.495099 -1.843634,2.372664 -3.30219,2.621911 -1.445181,0.668161 -2.366695,1.72413 -3.98601,2.27822 -1.459052,1.03384 -1.452664,2.77731 -1.724538,4.34291 -1.086457,1.38013 -0.951948,4.01427 -3.121845,4.39081 -1.600759,0.87253 -3.242009,1.03884 -3.129187,3.34124 -0.324881,1.96149 -1.290762,3.68844 -1.133197,5.56686 -0.369238,1.38047 -2.377111,2.70937 -3.58614,2.54324 -0.756093,-0.9687 -1.876698,-2.00412 -3.025923,-2.75645 -0.982672,-0.40773 -1.663983,-0.62075 -2.28177,-1.02396 -1.108158,-0.92368 -1.644202,0.92352 -2.73174,0.57044 -0.965664,0.66437 -1.896603,0.2653 -2.39161,1.13734 0.06421,0.81407 -2.050625,0.41606 -2.50853,0.79721 -0.870136,-0.42046 -1.716891,0.4035 -2.84866,0.34368 -0.863388,-1.0139 -1.763291,0.0443 -2.50499,-0.45706 -1.101512,-0.47503 -0.757014,-1.83108 -0.757528,-3.04024 0.181672,-1.34355 -0.373591,-1.36582 -0.610112,-2.54018 -1.347272,-0.16149 -0.731282,-1.37469 -1.24826,-2.60424 -0.646314,-0.76339 1.479321,-1.91647 0.22429,-2.97971 -0.636371,-1.01731 0.375095,-1.61398 -0.01675,-2.52174 -1.209814,-0.53791 -0.974401,-1.80033 -1.694572,-2.71854 0.290063,-1.19262 -0.340747,-1.79731 -0.45352,-3.07543 0.06548,-1.350046 1.118743,-1.26458 0.7972,-2.618371 0.411591,-1.830529 -2.68378,-2.110568 -2.16485,-4.10293 0.796881,-1.410241 -0.972612,-1.129012 -1.218116,-1.976126 -0.359585,-1.683279 -2.065641,-0.951879 -3.111574,-1.099304 -0.659325,0.326917 -1.630639,-0.367804 -2.27823,0 -1.030457,0.291206 -1.290456,-0.65574 -2.27822,-0.7972 -1.062123,-0.571733 -1.552499,-1.286733 -1.82117,-2.16485 0.0019,-1.052128 -1.089333,-0.252944 -1.48102,-0.57044 -1.020749,0.696348 -1.074966,1.157806 -1.36764,2.05147 -0.618182,-0.007 -1.275911,0.973423 -1.59441,1.02396 -0.975031,-1.529863 -0.745153,0.339151 -1.48102,-0.22676 -1.115449,-0.06594 -0.776234,0.294509 -1.82471,1.02396 -0.703525,-1.27195 -1.041321,-0.321941 -1.93454,-1.13734 -0.917809,-0.0745 -1.435282,-0.09999 -2.28177,0.22676 -0.164079,-0.857267 -1.512118,-0.05084 -1.93455,-0.57044 0.103771,0.958137 -1.346692,-0.225446 -1.8247,0.34368 -0.388971,0.07304 -1.003125,-0.389914 -1.59441,-0.68382 -0.64925,0.0078 -1.279778,-0.412088 -2.61836,-0.34368 -0.637826,-0.591524 -0.255602,-1.671887 -1.59441,-1.25073 -1.1891547,-0.778147 -0.8898197,0.858278 -2.05146,0.45352 C 7.8052166,88.127374 5.9630119,88.471457 5.6978279,87.314396 4.0514599,87.649322 4.8693578,86.085345 5.5588923,84.917476 6.544615,83.495052 4.6087215,83.581614 5.9621105,82.545334 5.1992891,81.141111 7.2726886,80.654995 5.578441,79.324719 6.4661591,78.48085 4.4781132,77.459037 6.0493328,76.042654 8.1174354,74.383023 5.6391059,73.84234 6.6082674,72.901195 8.0552689,71.660088 6.0639811,69.57625 7.516531,68.387109 8.6624871,66.934017 4.6130113,67.368589 6.5485684,66.144273 8.3382064,64.72602 3.3859442,65.004597 6.3752358,64.113748 7.7892698,63.546678 5.1957426,62.376008 4.894621,63.146839 5.329218,61.874435 3.7804648,60.917332 4.6174667,59.318565 4.723079,57.907681 2.1945762,57.568992 3.0734514,55.628339 0.6973464,56.437118 3.3707106,54.42354 1.8191914,54.260689 2.7399668,53.528358 3.8251368,52.649918 4.894621,52.209219 5.9658922,51.609824 8.1827484,51.137482 5.7022464,49.668583 4.32873,48.317172 1.1658383,47.394042 3.2661027,45.211197 3.5432088,44.619617 3.8203149,44.028038 4.097421,43.436459 Z"
       id="Mato Grosso do Sul"
       inkscape:connector-curvature="0" />
  </g>
</svg>
