<?xml version="1.0" encoding="UTF-8" standalone="no"?>
<!-- Created with Inkscape (http://www.inkscape.org/) -->

<svg
   xmlns:dc="http://purl.org/dc/elements/1.1/"
   xmlns:cc="http://creativecommons.org/ns#"
   xmlns:rdf="http://www.w3.org/1999/02/22-rdf-syntax-ns#"
   xmlns:svg="http://www.w3.org/2000/svg"
   xmlns="http://www.w3.org/2000/svg"
   xmlns:sodipodi="http://sodipodi.sourceforge.net/DTD/sodipodi-0.dtd"
   xmlns:inkscape="http://www.inkscape.org/namespaces/inkscape"
   width="210mm"
   height="297mm"
   viewBox="0 0 744.09448819 1052.3622047"
   id="svg3611"
   version="1.1"
   inkscape:version="0.91 r13725"
   sodipodi:docname="RJ-ink.svg">
  <defs
     id="defs3613" />
  <sodipodi:namedview
     id="base"
     pagecolor="#ffffff"
     bordercolor="#666666"
     borderopacity="1.0"
     inkscape:pageopacity="0.0"
     inkscape:pageshadow="2"
     inkscape:zoom="0.35"
     inkscape:cx="375"
     inkscape:cy="520"
     inkscape:document-units="px"
     inkscape:current-layer="layer1"
     showgrid="false"
     inkscape:window-width="1366"
     inkscape:window-height="705"
     inkscape:window-x="-8"
     inkscape:window-y="-8"
     inkscape:window-maximized="1" />
  <metadata
     id="metadata3616">
    <rdf:RDF>
      <cc:Work
         rdf:about="">
        <dc:format>image/svg+xml</dc:format>
        <dc:type
           rdf:resource="http://purl.org/dc/dcmitype/StillImage" />
        <dc:title></dc:title>
      </cc:Work>
    </rdf:RDF>
  </metadata>
  <g
     inkscape:label="Camada 1"
     inkscape:groupmode="layer"
     id="layer1">
    <path
       style="fill:#ff0000;stroke:#ffffff;stroke-width:0.9920736"
       d="m 0.2817514,44.10536 c 0.40981084,-0.66168 1.0945864,-0.776705 1.25426,-1.36764 -0.2037478,-0.432691 -0.1404627,-1.029593 0.22676,-1.82116 -0.3954113,-0.796677 0.8905607,-0.559415 1.0476444,-1.344702 0.7890088,-0.376742 1.2862536,-0.157697 1.9813921,-0.853641 0.8077125,-0.200037 1.3772131,-0.293241 2.1486924,-0.763707 0.092687,0.911797 0.7778122,0.259236 1.4301907,0 0.8179294,0.138196 1.2905019,-0.134836 1.871989,-0.34014 0.74282,-0.132447 0.638355,-0.674308 0.633001,-1.25427 0.446084,-0.373313 0.991171,-0.572605 1.36764,-1.14088 0.0426,-0.733148 -0.529131,-1.436748 -1.188169,-1.48103 -0.714137,0.166854 -1.018653,-0.276623 -1.656951,-0.22676 -0.4204673,0.450282 -0.019371,0.06019 -0.80075,-0.34013 -0.2485503,0.454797 -0.8244659,0.828751 -1.5944,0.56689 -0.3543793,0.736358 -0.9639918,0.618356 -1.0257981,0.113298 -0.665268,-0.08539 -0.8351502,0.147358 -1.4791915,0.0036 C 4.4369878,32.874844 3.8183627,33.101863 3.7408048,32.453977 2.7772913,32.140955 3.2358776,31.411226 2.6733514,30.66277 1.711504,30.360448 1.2040906,29.972238 2.5599714,29.75218 3.2674856,29.3551 4.0711339,30.194826 4.5818833,29.30528 4.7464677,28.442781 5.9667469,29.144245 6.205841,28.8416 c 0.8276513,-0.322717 1.0085957,-1.129498 1.7417334,-1.181731 0.7161077,0.37569 1.132121,-0.05855 1.9041366,0.04085 0.774067,-0.708594 0.700224,0.545785 1.48103,0 0.432483,-0.169436 1.103475,-0.732159 1.70778,-0.7972 0.118712,-0.829838 0.596469,-0.401109 1.232743,-0.876863 0.670697,-0.07435 1.18067,-0.124523 2.00201,-0.542715 0.979376,-0.371973 0.923906,-0.504996 1.892147,-0.745272 0.96057,-0.877789 0.994962,0.555407 1.5944,-0.11338 0.983482,0.1948 0.786169,-0.33137 1.59795,0 0.315981,-0.0094 0.585877,-0.565569 1.13734,0 0.788466,-0.543788 1.162208,0.209237 2.05147,-0.34014 0.761942,-0.248738 1.335044,-1.20645 2.050653,-0.798007 0.839711,-0.06942 1.339937,0.0434 1.821977,0.340947 0.366662,-0.37055 1.928009,0.01458 0.91058,0.68382 0.0489,1.316346 0.804418,-0.215236 1.413639,0.300605 0.671743,-0.470034 0.765898,-1.09087 1.778711,-1.324565 1.038441,-0.159502 1.363092,-1.198734 2.412568,-1.259932 1.309042,-0.475821 2.509004,-1.289141 3.885165,-1.548795 0.359318,-0.698052 1.62064,-0.729842 2.288711,-1.227739 0.886901,-0.202978 1.406305,-0.728046 2.347626,-0.750294 0.99111,-0.293504 0.701215,-1.131363 0.11338,-1.36764 -0.8176,0.157753 -1.395407,-0.438002 -0.841763,-1.077922 0.528214,-0.576825 0.814552,-0.906315 1.298823,-1.540448 0.73982,-0.490468 -0.69158,-0.903432 0,-1.71132 0.850654,0.02938 0.440969,-0.644899 0.830693,-1.210787 -0.605352,-0.576241 0.855641,-1.391069 0.536947,-1.978023 -0.345929,-0.2643786 -0.05302,-1.2960303 0.45707,-1.7586193 0.215396,-0.5235985 1.076475,-0.6636935 1.13734,-1.5435707 1.107906,0.075973 -1.582173,-0.6924633 -0.68382,-1.25426 0.619475,-0.1671001 1.223625,-0.5277651 2.093863,-0.5185225 0.920772,0.2560467 0.803193,-0.5678237 0.981557,-1.0758875 0.91553,-0.4025211 -0.0056,-1.5069574 1.25427,-1.36764 0.19585,-1.0291295 1.200967,0.448297 1.36764,0.34368 0.85551,-0.3180185 1.034952,0.2417193 1.02396,1.02396 0.752621,-0.073666 0.0049,0.862127 0.11338,1.36765 0.652105,0.6343786 0.0084,1.123226 0.23031,1.70778 -0.07112,0.065607 -0.545138,1.0255822 0.22676,1.02396 -0.513098,0.6015791 0.802884,0.065626 1.02396,0.68382 0.898182,0.030604 1.250594,0.6521994 1.753733,0.6319025 0.614918,-0.1726377 0.922935,0.2526938 1.716206,0.6223675 0.615188,-0.5378894 1.117523,-0.2169793 2.000641,0 0.292551,0.717446 1.007268,0.04168 1.48102,0.22676 0.90611,0.359317 0.535887,0.217085 1.39714,0.155964 0.752486,-0.6701358 1.440664,0.05174 2.01843,0.187716 0.550801,0.401583 0.853608,0.655006 1.14088,1.13734 0.122904,0.974748 -0.521396,1.306972 -0.995556,2.086461 -0.738677,0.603073 -1.352839,1.603499 -0.647563,2.489983 0.888558,0.538886 0.722225,0.794843 0.502239,1.968925 0.09906,1.63367 0.877939,3.197448 0.91412,4.849311 -0.38084,1.150708 -1.845775,1.207496 -2.62191,2.04792 -2.287873,1.565168 -5.242586,1.529389 -7.677879,2.774826 -0.907455,0.397993 -1.859959,0.829936 -2.575911,1.554864 -0.871583,0.3602 -0.291135,1.071449 -1.483753,1.370383 -0.403793,0.839187 -0.942002,1.03322 -1.478287,1.705047 -0.538817,0.235674 -1.183953,0.526261 -1.36765,1.59795 -0.03553,0.753031 0.0096,1.97649 0.68382,2.1613 0.53237,1.055934 1.123865,0.145967 1.36765,0 0.273157,0.779217 -0.219428,0.58005 -0.869727,0.944525 -0.03067,0.42234 -1.286227,0.889588 -0.951443,1.333705 -0.381262,0.193321 -1.425791,0.959058 -0.57044,1.59794 0.386187,-0.552874 0.142224,0.857649 -0.155942,0.402075 -0.32689,-0.575643 -1.652104,-0.589498 -2.506738,-0.624189 -1.81237,-0.08359 -3.708113,-0.374821 -5.468663,-0.173494 -0.974975,-0.05312 -2.133425,-0.233609 -3.033027,0.165308 -0.354494,0.405634 -1.732232,-0.0016 -2.491264,0.266444 -0.967565,0.259562 -1.952413,0.0062 -2.895879,0.150673 -0.77354,0.278954 -1.045356,-0.251506 -1.904597,-0.530497 -0.859343,-0.234778 1.112009,-0.118341 -0.11338,-0.57044 -0.579167,-0.305773 0.500213,-0.567848 0.45706,-1.3641 0.61235,-0.567405 0.342177,-1.040464 1.13734,-1.71133 0.108935,-0.85822 -0.455019,-0.908046 -1.36764,-0.7972 0.101965,0.628708 -0.971371,0.385942 -1.70778,0.68382 -0.545491,0.545909 -0.971286,0.537876 -1.206788,1.29679 0.02032,0.415203 1.445412,1.50704 0.472129,0.41099 -0.428728,-0.673403 1.165078,-0.410779 1.190908,-0.683008 0.694396,-0.559078 0.160487,1.215314 -0.07352,0.766896 -0.889341,-0.344772 -0.944015,0.535519 -0.269347,0.486562 -0.624271,0.27346 -0.09307,0.539903 0.45706,0.57044 0.159386,0.149219 0.350233,0.302578 0.11338,0.7972 -0.17624,0.347252 0.806043,0.0063 -0.22676,0.68382 0.03799,0.333918 -1.612719,0.523158 -1.93809,0.57045 -0.400658,-0.642973 -1.770293,-0.586053 -1.8247,-0.45707 -0.05619,0.481832 1.160812,-0.360401 1.0275,0.22676 -0.185991,-0.243271 1.77829,0.601193 -0.11338,0.34369 -0.866567,-0.0793 -1.79944,0.312643 -2.27823,0.34014 -0.936706,0.211347 -1.094744,1.138042 -1.48102,0.45706 -2.106735,-0.34077 -4.321696,0.175108 -6.420375,0.517719 -1.220949,0.511143 -0.750557,-0.739412 0.152595,-0.861409 0.533162,0.899064 2.00055,0.181013 0.68382,-0.34013 1.41163,1.206639 3.306595,0.493172 4.917696,0.23869 1.04174,0.409884 1.283228,0.596624 0.362527,-0.158803 -0.69516,-0.431964 -1.326578,-0.606539 -1.83882,-0.786967 -0.417057,-0.401316 -0.960807,-0.963317 -1.616693,-1.11409 -0.738785,0.370742 -0.262916,-0.107322 -1.061002,-0.156861 -0.105536,0.633198 -0.441604,1.084223 -0.877088,0.723761 0.773827,-0.580646 0.459883,-0.320128 -0.57044,-0.34014 -0.813142,-0.191024 -1.469869,1.256617 -1.616693,0.77395 0.205482,-1.168816 -0.740987,0.190811 -0.774917,0.5937 -0.863853,0.762434 -1.198297,0.208938 -1.36764,0.7972 -0.06299,-0.48189 -1.687499,0.508241 -1.034449,-0.425265 0.429551,-0.758912 -0.798926,-0.42171 -1.017021,-0.03179 -0.090382,-1.016083 -0.6449226,0.440426 -1.02396,-0.11338 0.1358428,-0.575018 1.498136,-0.899441 0.68382,-1.14089 -0.6710458,0.488069 0.484942,-0.837255 -0.68382,-0.5669 -0.4405413,0.364648 0.5024834,0.350957 -0.34014,0.91058 -0.127254,-0.695912 -1.1007449,-0.55469 -0.80074,0.11338 -0.3647269,0.218897 0.1348352,1.080456 -0.5669,0.57045 -0.2801931,-0.111321 -1.0772817,0.340882 -1.8247096,0.57044 -0.5163199,0.481866 -0.4897252,-0.13611 -1.13734,0 -0.4433027,0.142366 -1.2404803,0.628613 -0.8801766,1.323249 0.148287,0.05528 -0.5438666,1.06324 -0.2607034,1.068351 -0.6343582,0.697591 0.4766413,1.09749 0.57044,0.34014 0.1060434,-0.457854 1.3406416,-0.0793 0.57044,0.34369 0.019385,0.380072 -0.079659,-0.647657 -0.45706,0.11338 0.1172479,-0.08534 -0.8505687,0.702706 0.22676,0.11338 1.6029687,-0.50445 -0.711,1.000217 0.2303,1.14088 -0.1533126,-0.596613 0.9076476,-1.198397 1.36764,-1.48102 -1.0507601,0.98793 0.4036269,0.960632 0.5668996,1.13734 0.8763671,0.363113 -0.897722,-0.07387 -0.7818547,0.928934 -0.5238041,0.790295 -0.9327723,0.159274 -1.1526849,-0.131734 -0.4827094,0.671678 -0.8920586,-0.183815 -1.36764,0.57044 -0.1337927,0.03366 -1.2250786,-0.288538 -1.14089,-1.14088 -0.94350958,0.0079 -0.4518025,-0.82063 -1.48102,-0.7972 0.10859921,-0.499514 -0.34029196,-0.286729 -0.11338,-0.79721 z M 53.825381,30.20925 c -0.06093,-0.355927 0.351316,0.05794 0,0 z m -0.22676,0.11338 c 0.339753,-0.371035 0.129955,0.461692 0,0 z m -24.95065,10.82069 0,-0.11338 0,0.11338 z m -5.35366,0.34368 0.11338,0 -0.11338,0 z m -10.02348,-0.57044 0,0.11338 0,-0.11338 z m -9.5699696,1.48102 c 0.072991,0.179823 0.072991,0.179823 0,0 z M 17.370221,39.66229 c 0.02047,-0.418103 0.15089,0.556178 0,0 z m -1.70779,0 c -0.155758,-0.209206 0.376034,-0.117965 0,0 z m 11.62143,1.48103 c -0.355906,0.06093 0.05794,-0.351308 0,0 z m -23.6963796,1.25426 0,0.11338 0,-0.11338 z m 0.34014,2.27823 c -0.10803,-0.30107 -0.4717562,0.144044 0,0 z m -0.34014,-1.02397 0.11338,0 -0.11338,0 z m 1.93454,1.59441 0,-0.11338 0,0.11338 z m -0.45352,-3.18881 c 0.2549197,-0.148209 -0.1482092,0.25492 0,0 z m 0.5669,-0.57044 c 0.4308279,0.384346 -0.052471,-0.01362 0,0 z m 10.2537896,-1.59441 0.11338,0 -0.11338,0 z M 4.4980614,41.60038 c 0.5299326,-0.22637 -0.2523753,0.486783 0,0 z m 17.8856696,0.34014 0.11338,0 -0.11338,0 z m -9.56997,-0.68383 c 0,0.105474 0,0.105474 0,0 z m 13.89966,0 c -0.05853,-0.348191 0.348204,0.05853 0,0 z m -10.82423,-0.22675 0,-0.11338 0,0.11338 z m 12.53202,0 0.11338,0 -0.11338,0 z M 5.5220214,46.72727 c 0.072991,-0.179823 0.072991,-0.179823 0,0 z m -1.5944,-3.30573 c 0.072991,-0.179823 0.072991,-0.179823 0,0 z m 12.0749496,-2.50498 0,0.11338 0,-0.11338 z m 0.57044,-0.45707 c -0.05853,-0.348212 0.348212,0.05853 0,0 z m 11.8482,0.7972 c 0.17982,-0.07298 0.17982,-0.07298 0,0 z M 4.0410014,43.76522 c 0,-0.403129 0,0.403129 0,0 z m 1.25426,0.22676 c 0.1798405,0.337069 -1.0517821,0.720928 0,0 z m -0.45706,-2.27822 c 0.082871,-0.347725 0.3560739,-0.144231 0,0 z m 18.4561096,0 0,-0.11338 0,0.11338 z M 5.4086414,43.8786 c -0.058533,-0.348212 0.3482125,0.05853 0,0 z M 29.331791,41.60038 c 0.179823,0.07299 0.179823,0.07299 0,0 z m -12.75878,-1.36765 0.11338,0 -0.11338,0 z m -3.64587,1.02396 c -0.129025,-0.311492 0.311515,0.129032 0,0 z m 15.60745,0.45707 c 0.348212,-0.05853 -0.05853,0.348212 0,0 z M 4.2713014,41.82714 c 0.2231416,-0.270267 0.012234,-0.05672 0,0 z M 30.015611,36.58686 c -0.05355,-0.608126 0.193198,-0.26392 0,0 z m -26.5415096,6.7213 c 0.6580555,-0.497232 -0.2385404,0.729037 0,0 z M 14.181411,40.6898 c 0.700512,-0.619024 0.420527,0.405652 0,0 z m 1.93808,0 c 0.282979,-0.827598 0.445563,0.208003 0,0 z m 11.73127,-2.50853 c -0.138108,0.444984 0.325228,-0.02092 0,0 z m -16.97508,5.92409 c -0.04093,-0.258314 -1.0433704,-0.878373 -1.36411,0.11338 -0.5035955,0.752489 0.1425669,-1.047226 -0.68382,-0.45352 0.1970491,-0.636765 1.0546861,-0.620144 1.36765,-1.25426 -0.2478221,0.916596 0.784979,-0.12547 0.722842,-0.278205 0.578531,-0.326669 1.106346,0.254501 0.641258,0.278205 0.492838,-0.08329 0.770858,0.804522 1.36764,0.11338 -0.653248,0.914282 0.549428,0.331197 0.57044,1.0275 -0.484104,0.123301 -1.483211,-0.425724 -1.48102,0.34014 -0.252452,0.118511 -0.727805,-0.219988 -1.14088,0.11338 z"
       id="Rio de Janeiro"
       inkscape:connector-curvature="0" />
  </g>
</svg>
