<?xml version="1.0" encoding="UTF-8" standalone="no"?>
<!-- Created with Inkscape (http://www.inkscape.org/) -->

<svg
   xmlns:dc="http://purl.org/dc/elements/1.1/"
   xmlns:cc="http://creativecommons.org/ns#"
   xmlns:rdf="http://www.w3.org/1999/02/22-rdf-syntax-ns#"
   xmlns:svg="http://www.w3.org/2000/svg"
   xmlns="http://www.w3.org/2000/svg"
   xmlns:sodipodi="http://sodipodi.sourceforge.net/DTD/sodipodi-0.dtd"
   xmlns:inkscape="http://www.inkscape.org/namespaces/inkscape"
   width="210mm"
   height="297mm"
   viewBox="0 0 744.09448819 1052.3622047"
   id="svg3847"
   version="1.1"
   inkscape:version="0.91 r13725"
   sodipodi:docname="RN-ink.svg">
  <defs
     id="defs3849" />
  <sodipodi:namedview
     id="base"
     pagecolor="#ffffff"
     bordercolor="#666666"
     borderopacity="1.0"
     inkscape:pageopacity="0.0"
     inkscape:pageshadow="2"
     inkscape:zoom="0.35"
     inkscape:cx="375"
     inkscape:cy="520"
     inkscape:document-units="px"
     inkscape:current-layer="layer1"
     showgrid="false"
     inkscape:window-width="1366"
     inkscape:window-height="705"
     inkscape:window-x="-8"
     inkscape:window-y="-8"
     inkscape:window-maximized="1" />
  <metadata
     id="metadata3852">
    <rdf:RDF>
      <cc:Work
         rdf:about="">
        <dc:format>image/svg+xml</dc:format>
        <dc:type
           rdf:resource="http://purl.org/dc/dcmitype/StillImage" />
        <dc:title></dc:title>
      </cc:Work>
    </rdf:RDF>
  </metadata>
  <g
     inkscape:label="Camada 1"
     inkscape:groupmode="layer"
     id="layer1">
    <path
       style="fill:#5599ff;stroke:#ffffff;stroke-width:0.9920736"
       d="m 0.9554743,27.304657 c 0.3040389,-0.649011 1.1116229,-0.573348 0.7972,-1.42783 0.6459684,-0.130711 0.8627077,-1.091127 1.25072,-1.53422 0.099572,-0.409712 0.8753185,-1.271323 1.1408897,-0.878715 0.3839352,0.978688 0.6384184,-0.205137 1.36764,0.425195 0.7053994,-0.334026 0.9049732,-0.838212 1.1354927,-1.57406 0.5489961,-0.563567 1.2730792,-0.677941 1.4828773,-1.38799 0.6776051,-0.618824 0.2879643,-1.501724 0.9928882,-2.01848 0.6966992,-0.615677 0.8145098,-1.474697 0.034612,-1.319115 -0.08253,-0.843855 0.512857,-1.2555 1.039951,-1.709246 0.406433,-0.643491 0.532367,-1.314366 1.351659,-1.561079 0.30903,-0.597246 1.224375,-0.758807 1.02396,-1.70778 0.714812,-0.5437 0.0762,-1.542606 1.030242,-1.884754 0.790284,-0.374599 0.677735,-1.0569469 0.576814,-1.7488445 0.275015,-0.6712459 0.147108,-1.6126088 0.901474,-2.0637415 0.01299,-0.9130459 1.27439,-0.7307062 1.214489,-1.7273399 0.03317,-1.0432482 0.596158,-1.6455418 1.651005,-1.6532146 1.694431,-0.4279809 3.391624,-0.8324614 5.106526,-1.1758954 0.416849,0.094833 0.814418,1.2782898 1.495962,1.5287746 0.7206,0.2769994 1.461654,-0.2924702 2.149908,0.4057653 0.697415,-0.2552352 1.388272,-0.8116941 1.97286,-0.1655147 0.883138,0.045971 1.28251,0.7762324 1.857061,1.373532 0.620586,0.5327553 1.342717,0.7206426 1.629983,0.8541291 0.146071,0.015613 1.15483,0.6535766 1.605076,0.1027036 0.581235,0.015339 1.353277,0.2165851 1.93454,-0.22676 0.909748,-0.067189 1.758827,0.3491567 2.62191,0.45706 0.658429,0.1281732 1.225801,-0.00343 2.11166,0.11338 0.854821,0.051529 1.764377,0.029227 2.4448,-0.57044 0.740762,-0.1038663 1.361514,-0.4615159 2.16484,-0.34368 0.810865,0.2818541 1.642155,0.7086104 2.50499,0.45706 0.806206,0.5510246 1.884467,0.4540941 2.73529,0.91058 0.551194,-0.4405397 1.336725,0.4557559 2.098115,0.5373361 0.753401,0.1436723 1.15941,1.0505098 1.821246,1.5132095 0.77955,0.6768973 0.393787,2.0487994 1.422812,2.4960224 0.455609,0.559365 0.308266,1.223372 0.922057,1.721212 0.03444,0.158217 0.285539,1.355499 0.57045,1.70778 0.131779,0.696154 0.104034,1.558358 0.57044,1.93809 -0.292368,0.805933 0.107872,1.469277 0.22676,2.11165 -0.309166,1.094573 0.626848,0.920381 0.45706,1.76098 -0.23552,0.971834 1.015964,0.819425 0.727261,1.762965 0.123011,0.687346 0.235938,1.321196 0.20377,2.140083 0.139084,0.539381 0.116109,1.378076 0.953859,1.450612 0.31249,0.640277 -0.03786,1.422524 0.21251,2.075871 0.522081,0.382404 0.942405,0.862467 0.97803,1.715244 0.307723,0.956779 -0.779224,0.891173 -1.278681,1.268325 -0.762472,-0.312795 -1.057042,-0.408431 -1.536599,0.302064 -0.681115,1.066131 -1.246485,-0.689552 -1.659655,-0.121234 -0.685479,0.149795 -1.734801,0.599491 -2.132985,-0.34014 -0.665422,-0.380211 -1.267879,-0.63951 -1.82116,-0.45706 -0.520168,-0.06507 -0.998296,-0.364783 -1.48103,0.11338 -0.444455,-0.254071 -0.951551,-0.763775 -1.71133,-0.7972 -0.402136,0.204623 -1.228295,0.553502 -1.923864,0.673144 -1.284253,-0.119792 -2.712578,0.411536 -3.883306,-0.216084 -0.243985,-0.367268 -0.94876,-1.280681 -1.243584,-1.038186 -0.800948,0.46223 -1.842375,0.217791 -2.745966,0.467746 0.02604,-0.907505 -1.384606,-0.733767 -0.57044,-1.739655 0.161349,-1.233871 -0.834029,-0.797121 -1.499082,-0.592229 -0.88711,-0.58599 -0.645225,1.58292 -1.749505,0.916478 -0.670742,-0.104757 -0.608096,1.235105 -0.964183,1.759086 0.0263,0.808784 0.786245,1.02514 1.25072,1.5944 0.431754,0.203945 0.463068,1.996223 -0.161135,1.122398 -0.879546,-0.810354 -0.971241,-0.100096 -1.223416,0.72919 -0.392496,0.867868 -0.171957,1.27118 0.57667,1.66669 0.398816,0.712408 -0.209344,1.442272 -0.899909,1.491692 -0.284537,0.441419 -0.314057,1.673797 -1.20107,1.59441 -1.137544,-0.840041 -0.962045,1.219441 -1.80642,0.604672 -0.830991,-0.660779 0.05344,-1.516204 0.15882,-2.312462 -1.167217,0.511836 -0.304735,-1.238927 -1.43942,-1.477475 -0.542352,-0.696222 -1.420201,0.205617 -2.08952,0.340135 -0.506422,0.774746 -0.445165,-0.464916 -0.80075,-1.0275 -0.68224,0.218526 -1.224066,0.901435 -2.035825,0.957785 -0.719069,0.208696 -1.249479,1.406017 -2.184416,0.899728 -0.715302,-0.417887 -0.154565,-1.32517 -0.778254,-1.730709 -0.04025,-0.904386 -1.157878,0.03483 -1.836185,-0.353564 -0.918728,0.106284 -1.721079,0.470681 -1.301077,-0.586155 -0.109462,-0.699251 -0.10056,-1.264999 -0.179943,-1.918835 0.35172,-0.657886 1.788407,-0.01952 1.544742,-1.261294 0.328161,-0.712501 -0.359508,-1.336142 0.25507,-1.906159 -0.231451,-0.905453 0.828071,-0.895885 1.065389,-1.570872 0.955561,0.425478 0.548815,-0.995075 1.453813,-1.175089 0.425031,-0.16234 1.576978,-0.860427 0.807876,-1.151566 0.252307,-0.469423 0.248369,-1.782645 -0.22676,-1.70778 -0.792864,-0.39104 -1.081631,-0.127654 -1.724709,0.162607 -0.568954,0.212743 -1.399889,0.397385 -1.694401,0.974733 -1.056536,-0.47288 -0.853041,0.845271 -1.583724,0.581116 -0.63972,0.142773 -1.023673,0.250887 -1.70778,0.435708 -0.656996,0.0795 -1.281079,0.652707 -1.948766,0.124056 -0.772146,0.197794 -1.186103,0.954727 -1.035437,1.240838 0.384306,0.911915 -0.174766,0.485394 -0.833478,0.938954 -0.287227,0.147049 -0.261335,1.403554 -1.009679,1.106674 -0.189642,0.123691 -0.214948,0.980817 -1.107416,0.929854 -0.304478,-0.497442 -0.977205,0.24067 -1.25427,0.45352 0.05945,1.251451 -0.5763177,-0.680068 -0.68382,0.2303 C 9.2085464,30.600871 8.6047299,32.092365 8.1645231,31.018459 7.5697824,31.271433 6.9334694,30.568056 6.309124,30.837147 5.5823172,31.609309 5.5804001,30.330366 4.714724,30.383627 4.1997753,30.225611 4.1385524,29.167673 3.3396133,29.50231 2.5083507,29.248314 2.1482098,29.132433 2.8232344,28.203069 c -0.057201,0.243345 -1.3893819,0.136154 -1.3008601,0.355848 -1.30997039,0.121184 -0.2120898,-0.97935 -0.5669,-1.25426 z"
       id="Rio Grande do Norte"
       inkscape:connector-curvature="0" />
  </g>
</svg>
