<?xml version="1.0" encoding="UTF-8" standalone="no"?>
<svg
   xmlns:dc="http://purl.org/dc/elements/1.1/"
   xmlns:cc="http://creativecommons.org/ns#"
   xmlns:rdf="http://www.w3.org/1999/02/22-rdf-syntax-ns#"
   xmlns:svg="http://www.w3.org/2000/svg"
   xmlns="http://www.w3.org/2000/svg"
   version="1.1"
   id="svg3692"
   viewBox="0 0 744.09448819 1052.3622047"
   height="297mm"
   width="210mm">
  <defs
     id="defs3694" />
  <metadata
     id="metadata3697">
    <rdf:RDF>
      <cc:Work
         rdf:about="">
        <dc:format>image/svg+xml</dc:format>
        <dc:type
           rdf:resource="http://purl.org/dc/dcmitype/StillImage" />
        <dc:title></dc:title>
      </cc:Work>
    </rdf:RDF>
  </metadata>
  <g
     id="layer1">
    <path
       id="Sergipe"
       d="m 4.7725971,27.27579 c 0.4778613,-0.185435 0.2670923,-0.926548 0.3871854,-1.339071 0.3633746,-0.452621 0.7327182,0.0048 1.2072246,0.08835 0.4654456,-0.153783 0.7240911,-0.347396 1.2143456,-0.179205 0.4140472,-0.101281 0.8593714,0.430153 0.7237344,0.913249 0.4598757,0.255874 1.0544584,-0.322058 1.5728192,-0.429575 0.6532237,-0.253844 1.3064467,-0.507688 1.9596707,-0.761532 -0.133009,-0.748954 -0.09256,-1.605669 -0.34368,-2.278226 -0.155104,-0.423612 0.365405,-0.223872 0.34368,-0.797202 0.08409,-0.624434 -0.637503,-1.148147 -0.614187,-1.664037 0.0766,-0.340284 0.09659,-0.546364 0.485903,-0.727569 0.173736,-0.327145 0.717054,-0.575552 1.12709,-0.614208 0.671487,-0.12685 -0.0071,-0.876762 0.05001,-1.377137 C 12.827462,17.54342 12.611797,16.97891 12.427224,16.585274 12.767895,15.94387 12.18093,15.53079 11.958203,14.986855 11.48648,14.554447 12.032148,13.705248 11.354244,13.459981 10.967573,13.023119 10.33825,13.346954 10.012877,13.050894 9.724031,12.936887 9.0882573,13.061249 9.0220574,12.305414 8.5328273,12.080991 9.0383504,11.429091 9.2156771,11.101447 9.1510864,10.604086 9.4510006,10.241734 8.6921633,10.118051 8.3612966,9.7656885 7.9846387,9.4247363 8.0783271,8.8381246 7.9389921,8.2529378 8.2576937,7.9676318 8.628983,7.5884449 9.3705402,7.5695857 8.4624475,7.0537944 8.1917071,6.8851339 7.8286372,6.2514492 8.2979,6.2198432 8.4184671,5.8611719 8.3413398,5.3192861 8.7337779,5.1460845 9.2618848,5.4808999 c 0.5004514,0.3299617 1.1029412,0.034056 1.5104312,0.3264307 0.491127,0.2499648 0.615576,0.7636875 1.065261,0.7341203 0.305776,0.3978778 0.446842,1.1316067 1.02397,0.570443 0.63366,0.057719 1.52766,0.279065 1.5944,1.027505 0.682814,0.3854442 1.282278,1.0179243 2.11616,0.9589045 0.797244,0.1734669 1.658684,0.1289707 2.32691,0.6354995 0.610265,0.00479 0.907102,0.5370071 1.441116,0.7461041 0.62943,0.150435 0.92379,0.81436 1.180794,1.305362 0.825688,-0.045 1.717763,0.02606 2.266468,0.728488 0.471134,0.248182 0.830315,1.189614 1.429108,0.755493 0.439245,-0.358231 1.081796,0.164615 0.974254,0.677322 -0.02826,0.484204 0.08255,0.902005 0.296932,1.323355 0.322166,0.518166 0.65439,0.810783 1.208901,0.981834 0.611305,0.0079 0.226257,0.784281 0.791449,0.937657 0.230458,0.41787 1.303707,0.09339 1.166654,0.587101 0.227496,0.112961 0.714341,0.599384 1.176097,0.499746 0.398094,-0.01227 0.837382,-0.641596 1.170687,-0.11338 0.243093,0.345926 0.719675,0.7344 0.7972,1.239361 0.169277,0.548606 -0.202936,1.324574 0.328787,1.599482 0.611326,-0.319087 0.347291,0.169327 1.023959,-0.103554 0.135482,-0.58172 0.834705,-0.11902 0.987766,0.186846 0.155177,0.517434 0.615154,0.947666 0.508158,1.520938 -0.486323,-0.219366 -1.152999,0.188021 -1.70778,0.226759 -1.109343,0.41915 -2.194958,0.902927 -3.07897,1.711327 -1.516454,0.542466 -2.662934,1.698937 -3.750361,2.839777 -0.836809,0.774021 -1.502899,1.765637 -2.056819,2.725734 -0.2772,0.608447 -0.835516,1.144946 -1.182241,1.753716 -0.395011,0.520368 -0.711568,1.08693 -0.982599,1.680298 0.104374,0.444771 -0.740163,0.896834 -0.981937,1.367894 -0.866301,0.930854 -1.425125,2.081468 -1.753353,3.301938 -0.07644,0.550577 -0.732716,0.196265 -0.980583,0.639715 -0.535523,0.536619 -1.115086,1.262254 -1.966563,1.068069 -0.364023,0.221429 -0.596772,0.76643 -1.155794,0.343683 -0.45961,0.364975 -0.01486,-0.45224 -0.62968,-0.13868 -0.406475,0.133696 -0.785788,-0.703233 -0.85134,-0.08808 -0.382349,-0.105167 -0.09072,0.949681 -0.665376,0.566899 0.08677,-0.512204 -0.522236,-0.03917 -0.68382,-0.453519 -0.478779,-0.109366 -0.79784,-0.317186 -1.243874,-0.274343 -0.02777,-0.484392 -0.342267,-0.490195 -0.70912,-0.866542 -0.689787,-0.111077 0.498976,-0.68849 -0.279383,-0.474404 -0.390424,-0.136838 0.189137,-0.532684 -0.404437,-0.09604 -0.17647,0.08876 -0.297331,-0.862855 -0.6838199,-0.468423 C 9.6863909,38.472479 9.5455589,37.84236 9.4608808,37.756339 9.0786366,37.868827 9.2582732,37.400405 9.040594,37.002402 8.8103766,36.607702 8.8075469,36.698152 8.8606334,36.392238 8.335107,35.969436 9.0407619,35.634258 8.9451703,35.2951 8.862072,34.969585 8.9643383,34.915158 9.1022971,34.469055 9.3453799,33.942323 8.4627734,34.419278 8.3050871,33.883709 7.9144083,34.036829 7.2913969,33.454017 7.6212671,33.086507 7.2073286,32.8459 7.1095468,32.552607 7.3945071,32.077449 7.3639116,31.795937 6.8082933,31.683098 7.0067872,31.404023 6.8361688,30.571845 6.4763782,31.508328 6.2536271,30.808281 5.4618834,30.743237 5.885226,29.924681 5.406171,29.805144 5.2519658,29.46456 4.8427537,29.618907 4.7775109,28.936103 c -0.235938,-0.457521 0.1775517,-0.943205 -0.030214,-1.266031 0.087132,-0.152146 -0.24475,-0.274092 0.0253,-0.394282 z"
       style="fill:#5599ff;stroke:#ffffff;stroke-width:0.9920736" />
  </g>
</svg>
