<?xml version="1.0" encoding="UTF-8" standalone="no"?>
<!-- Created with Inkscape (http://www.inkscape.org/) -->

<svg
   xmlns:dc="http://purl.org/dc/elements/1.1/"
   xmlns:cc="http://creativecommons.org/ns#"
   xmlns:rdf="http://www.w3.org/1999/02/22-rdf-syntax-ns#"
   xmlns:svg="http://www.w3.org/2000/svg"
   xmlns="http://www.w3.org/2000/svg"
   xmlns:sodipodi="http://sodipodi.sourceforge.net/DTD/sodipodi-0.dtd"
   xmlns:inkscape="http://www.inkscape.org/namespaces/inkscape"
   width="210mm"
   height="297mm"
   viewBox="0 0 744.09448819 1052.3622047"
   id="svg3431"
   version="1.1"
   inkscape:version="0.91 r13725"
   sodipodi:docname="SP-ink.svg">
  <defs
     id="defs3433" />
  <sodipodi:namedview
     id="base"
     pagecolor="#ffffff"
     bordercolor="#666666"
     borderopacity="1.0"
     inkscape:pageopacity="0.0"
     inkscape:pageshadow="2"
     inkscape:zoom="0.35"
     inkscape:cx="375"
     inkscape:cy="520"
     inkscape:document-units="px"
     inkscape:current-layer="layer1"
     showgrid="false"
     inkscape:window-width="1366"
     inkscape:window-height="705"
     inkscape:window-x="-8"
     inkscape:window-y="-8"
     inkscape:window-maximized="1" />
  <metadata
     id="metadata3436">
    <rdf:RDF>
      <cc:Work
         rdf:about="">
        <dc:format>image/svg+xml</dc:format>
        <dc:type
           rdf:resource="http://purl.org/dc/dcmitype/StillImage" />
        <dc:title></dc:title>
      </cc:Work>
    </rdf:RDF>
  </metadata>
  <g
     inkscape:label="Camada 1"
     inkscape:groupmode="layer"
     id="layer1">
    <path
       style="fill:#ff0000;stroke:#ffffff;stroke-width:0.9920736"
       d="m 0.403019,50.502887 c -0.19761864,-1.312712 1.7489311,-1.867647 2.61837,-2.508529 1.9991029,-0.355776 2.8099684,-2.553688 4.90013,-2.962048 1.5397254,-1.104315 3.434319,-1.490359 4.44307,-3.188808 1.212641,-1.222291 1.112532,-3.307193 2.61837,-4.102933 1.02422,-1.32072 2.012072,-2.292381 3.07543,-3.642328 -0.746841,-1.515357 -1.274074,-3.24469 1.235338,-2.895897 0.861189,-1.023963 1.629124,-2.173459 2.043478,-3.376767 0.426414,-1.145074 -1.504927,-3.234812 0.710734,-3.183923 0.880592,-1.189921 1.192601,-2.941578 3.103574,-3.018898 0.686929,-1.424484 -0.645079,-3.106548 0.269214,-4.582981 0.764427,-1.426609 2.185743,-2.250488 3.066179,-3.663519 1.007981,-1.139204 1.573607,-2.994224 3.603515,-2.747642 2.788887,0.09287 3.042672,-3.1443397 4.197318,-4.900135 1.141758,-0.480325 2.14574,-1.2932933 3.423919,-1.6811872 1.997975,0.084939 2.477127,-2.0318383 4.094581,-2.4182019 1.840519,-0.8004522 2.457039,1.8914518 4.213509,1.367302 1.222476,0.1821335 2.851567,-0.5229901 3.762051,0.797544 1.732256,0.1926768 3.246604,0.4982327 5.00997,0.11338 1.641916,0.7366175 3.582437,-1.3676651 4.58463,0.7100178 0.849184,1.1424199 4.104615,-1.1159693 3.50432,0.6576263 -1.604473,0.7807397 -0.428682,3.1354145 0,4.443072 1.063543,2.031003 2.841236,-0.070689 3.169886,-1.553017 1.934516,-1.4473699 2.079106,2.391224 1.738755,3.685753 1.277668,2.155969 2.2737,-0.301042 1.359139,-1.562293 0.254257,-1.5190494 0.783347,-2.6216338 2.61836,-2.508529 1.596912,0.8011399 2.749951,-0.6473404 4.436662,-0.3594219 1.426618,-0.5137512 2.722486,0.2068223 3.995968,0.1326619 -0.594978,-1.1899122 -0.02209,-2.7363312 1.13734,-0.570442 0.74087,1.2039327 2.436821,0.7393317 2.848671,-0.45352 0.04577,-1.8707241 2.003672,2.7136118 2.16484,-0.457062 -0.838732,-1.4098091 1.64392,-0.9241694 2.50499,-1.254264 1.073458,1.4135462 1.878581,1.0821492 2.96205,0.113379 1.741348,-1.0396174 1.529367,0.8359717 2.163973,1.7086976 1.307046,0.2495076 2.404164,1.1641404 2.93394,2.3503166 -0.326775,1.1357118 -1.425625,1.9255838 -0.881603,2.8925878 -0.329058,0.840446 0.06872,1.358075 1.25426,2.047923 1.60322,0.08128 1.20894,1.771895 1.93455,2.621909 -0.67552,1.205429 -1.548228,1.100657 -2.16485,2.504986 -0.680096,1.812181 1.06174,2.240044 1.25427,3.64587 0.0482,1.504157 0.82277,1.535137 0.45706,2.735289 0.72958,1.156236 1.0189,0.564074 1.36764,1.938087 0.67322,0.735728 0.54395,1.859755 0.68028,2.391606 0.86319,0.189196 2.13335,0.04518 2.84867,-0.910582 1.34522,-0.543558 1.61108,1.201396 2.50853,0.11338 0.83426,-0.823603 0.74399,1.940274 1.68581,0.97773 1.64405,-0.0837 0.71463,1.355727 1.38962,2.211078 -0.74748,0.824704 -0.54871,2.240536 -2.05147,2.051466 0.18764,1.400072 -0.79136,1.869503 -1.02396,2.962049 0.98945,0.62401 -0.33118,1.700694 1.02396,2.504985 -0.0548,0.580092 -1.40757,0.413597 -1.02396,1.367645 -1.86711,0.308836 1.2496,0.233502 1.3641,1.023961 -1.20842,0.627042 -1.27504,1.530737 -1.82116,2.278227 -0.12726,0.754262 -0.0799,1.387208 0.7972,1.824706 -0.67346,1.44966 1.71777,1.07798 1.82116,1.594404 0.31905,1.041469 1.84522,0.99612 2.39515,1.594404 -0.8333,0.612067 0.59839,1.987117 0,1.824707 -1.70377,0.0044 -0.9808,1.21353 0.11338,1.481024 1.39882,-0.0059 0.87169,0.616075 0.45352,1.707784 -0.4506,1.392599 1.59382,0.466114 2.16485,0.797202 1.67637,-1.489994 1.53296,0.933738 2.50853,0.11338 1.36078,0.156764 2.27003,-0.723904 3.30219,-1.367644 -0.0297,1.462348 0.69337,0.520647 1.48102,0.343682 0.70756,0.817282 0.99147,-1.278473 1.5944,-0.457062 0.16806,-1.23822 -0.16146,-1.675747 -1.70778,-1.481024 0.12817,-1.30992 2.91556,-0.655887 1.70796,-1.820649 -1.03039,-0.791081 2.02039,-0.976559 0.68365,0.112865 0.14935,1.291758 2.8074,-1.511084 1.5944,0.340139 1.1687,0.810468 1.62007,-1.689279 2.50853,-0.453519 0.45648,0.939173 2.2006,0.01752 2.96205,-0.457063 0.91965,-0.525668 1.63532,-1.257662 2.73174,-1.938086 1.03052,-0.470651 2.59217,0.147106 3.41824,-0.794573 0.9262,-0.225252 2.62969,-1.041199 2.84954,0.681193 -0.007,1.047401 1.39204,1.107489 1.25427,1.938087 0.24678,1.25152 1.97454,-0.330678 1.82116,0.910581 0.62304,-0.118732 1.12774,-0.749725 2.27823,-0.570442 0.10555,-1.508202 1.07303,0.882868 0.91058,-0.340139 0.69776,0.463161 1.86745,0.120136 2.39515,0.683822 1.20365,0.712631 0.27779,1.795243 -0.59632,2.07642 -0.28317,0.700064 -0.12739,1.414281 -1.34177,1.79621 -0.55829,-0.303526 -1.95846,0.338682 -2.62191,0.457062 -0.15177,-0.827328 -2.03915,0.203078 -2.73174,0.683823 -0.96862,0.07478 -1.61251,0.743583 -2.39515,1.137341 -0.41083,0.27307 -0.40769,1.440413 -0.5669,1.938087 0.34074,0.745736 -0.42666,1.160999 -1.02751,1.821163 -0.35538,1.105726 1.067,1.220336 1.48103,1.824707 0.74759,1.183846 1.18118,1.006605 -0.34014,1.364101 -1.24407,0.385852 -1.03772,-1.227766 -2.39161,-0.340139 -0.21801,0.992725 -1.86761,0.784805 -1.93808,1.254264 1.26993,0.501134 -0.18018,0.516163 -0.34014,1.367645 -0.67639,-1.13506 -0.11655,0.84921 -1.02751,-0.230303 -0.73214,-0.01323 0.0518,0.91534 -1.36764,0.683822 0.88754,0.527695 -0.44917,1.185391 -0.91059,0.797202 -0.5592,-0.454287 -1.75296,1.016104 -2.476,1.096966 -0.0604,1.182367 1.37741,2.771566 -0.14236,3.005967 -1.08515,0.424502 -1.45242,-0.01075 -2.50853,-0.570442 -0.91681,0.25305 -1.17912,-0.453574 -2.39161,-0.343683 -1.49146,-0.313624 -3.78143,-0.24206 -5.12689,0.800745 -0.32626,-0.02737 -2.28367,0.391601 -1.70778,1.250722 -0.85049,0.509771 -0.28417,1.177753 -0.91059,1.711327 -0.55918,-0.558526 -1.74007,1.399598 -1.71132,0.453519 -0.27529,0.259252 -1.02518,-1.393511 -1.48103,-0.683822 0.28983,1.513347 -1.17511,0.318197 -2.59273,1.428442 -2.69347,1.415345 -5.64882,2.704647 -7.77444,4.839337 -0.30962,1.219071 0.32493,1.324539 -1.25072,1.821164 -1.767785,1.529059 -3.500521,2.699078 -5.47058,3.87263 -2.872297,1.771292 -6.557534,3.53039 -8.20232,6.721298 -0.581626,0.564438 0.188654,2.093168 -1.164525,2.305413 -1.639864,1.339295 -3.157506,3.018232 -1.113695,0.543255 -0.819767,0.467758 -1.725659,0.605466 -2.731751,-0.34014 1.084777,-0.829278 -0.538691,-1.455939 -0.45706,-2.735287 0.0299,-0.457535 -0.692612,-1.582734 -1.02396,-0.457063 -0.614294,0.592242 -0.782815,1.021279 -1.508214,-0.137023 -1.241418,-1.127485 -2.029255,0.774825 -2.708106,1.618047 -0.755664,-0.696699 -1.621231,-1.539217 -0.68382,-2.391606 -0.187579,-0.9022 0.511026,-1.419032 0.11338,-1.821163 -0.341489,-0.92962 1.84985,-2.009353 0.57044,-2.164847 -0.698581,-0.581616 -1.417166,-1.806672 -2.27822,-0.457062 -0.149298,-0.98676 -0.67188,-0.01807 -1.59441,-0.453519 -1.119003,-0.181787 -1.471931,-0.385723 -2.73529,-0.116923 -1.375775,0.55235 -1.156512,-1.251922 -1.93808,-0.45352 -0.0289,0.72361 -1.11798,0.615581 -1.953542,0.45352 -0.906824,0.243557 -1.749278,0.792562 -2.602908,-0.11338 0.148112,-0.7676 -0.328933,-1.377885 0.11337,-2.047924 0.285426,-0.601871 0.879204,-1.442949 1.14089,-2.395149 -0.710578,-0.168076 1.375313,-1.518392 -0.57044,-1.821163 -0.446499,-0.348135 -1.2396,-1.292868 -1.25072,-1.938087 0.547625,-1.399961 -1.113592,-1.212454 -1.36765,-1.821164 -0.04387,-0.458424 -1.388808,-1.228349 -0.91412,-1.367644 -0.447768,-0.545181 -0.684875,-1.133478 -0.45352,-1.254264 -0.582699,-0.292901 -1.600154,-0.700603 -1.59441,-1.481025 0.0395,-0.08326 1.039779,-1.021762 0.5669,-1.934543 0.811368,-0.192473 -0.192692,-1.152633 -0.5669,-1.594404 -0.461351,-0.517284 0.106231,-1.974177 -0.2303,-2.395149 -0.34453,-0.928327 1.414884,-1.174014 0.34368,-1.707784 -0.422666,-0.339572 0.06638,-0.805708 -0.57044,-1.137342 0.09484,-1.274429 -0.549732,-2.677168 -1.25426,-3.305731 -0.237313,-0.852663 -1.286542,-0.710032 -2.16131,-1.481024 -1.899359,0.512976 -0.568336,-1.605044 -2.30672,-1.733647 0.119101,-1.813218 -0.323121,-0.329589 -1.33915,-1.115021 -0.668715,0.67476 -2.413385,1.076796 -3.30573,0.683822 -1.465126,0.256497 -2.419293,-1.10811 -3.416482,8.67e-4 -1.120686,-0.105383 -2.209151,-0.496484 -3.304818,-0.798069 -0.623782,0.74601 -2.717898,2.011871 -2.50498,0 -0.529281,-1.021037 -1.746199,-1.777365 -2.73529,-1.938087 -1.550261,0.01763 -3.236077,-0.478436 -4.66983,-1.250721 -0.467141,-1.157976 -2.84181,-0.928296 -3.746896,-0.739397 -1.260365,1.28989 -2.623247,-0.700975 -4.001914,0.05557 -0.47888,-1.653537 -2.396125,-0.07342 -3.41556,-1.254265 -1.078968,-0.600384 -3.146507,-1.990942 -4.10294,-0.910582 0.150176,1.387773 -1.231039,3.148044 -1.70778,1.140885 -1.349499,1.139484 -2.928146,-0.733693 -4.10293,0.34014 -1.3566421,-1.467817 -2.2089517,-0.712174 -3.87263,-0.11338 -1.5131865,-0.31758 -2.8342518,-1.030096 -4.3297,-0.797202 -0.6744931,0.133622 -2.00463971,2.199841 -2.04792,0.683822 z M 138.93193,64.058864 c -0.13917,0.507855 -0.0111,-0.510617 -0.11338,0 m -2.84867,5.924097 c 0.24313,0.305618 0.0538,0.08461 0,0 z m -16.74833,1.481024 0,-0.11338 0,0.11338 z m 13.55952,-5.126895 0.11338,0 -0.11338,0 z m 2.96205,-0.226759 c -0.0963,-0.126849 -0.0477,0.0044 0,0 z m 2.27822,-2.848669 0,-0.11338 0,0.11338 z m -6.83467,3.98601 0,-0.11338 0,0.11338 z m 0.22675,5.810717 0,-0.11338 0,0.11338 z m 6.49454,-8.659385 c 0.34821,-0.05853 -0.0585,0.34821 0,0 z m -6.9516,8.659385 0,-0.11338 0,0.11338 z m 0.7972,-1.137342 c -0.54521,0.73778 1.36898,0.371005 0.68383,1.250722 -0.19524,1.560283 -0.86832,-0.93507 -1.70779,-0.22676 -0.78863,1.111298 -3.27331,-0.374922 -1.25426,-1.023962 0.9761,-0.301096 0.68461,-2.797177 2.05146,-2.164846 1.00418,0.297767 1.00442,1.393656 0.79721,1.821164 0.79392,0.22551 -1.17015,-0.32697 -0.57045,0.343682 z m 4.10294,-5.357197 0.11338,0 -0.11338,0 z m -3.30573,4.673375 c -0.13307,-0.321251 0.32124,0.133064 0,0 z m -29.39018,9.566424 0.11338,0 -0.11338,0 z m 34.86075,-17.201847 c 0.30955,-0.0044 -0.34016,0.126847 0,0 z m -0.68382,0.230302 c -0.35131,0.05794 0.0609,-0.355912 0,0 z m -12.98908,6.948059 0.11693,0 -0.11693,0 z m 3.19235,1.140884 c 0.0403,-0.360183 0.31121,-0.08032 0,0 z m -23.24286,8.999525 c 0.35591,-0.06093 -0.0579,0.351308 0,0 z m 0.11692,0.34014 c -0.0585,-0.348212 0.34821,0.05853 0,0 z m 34.29032,-16.861708 c -0.054,0.04144 0.30726,-0.02025 0,0 z m -14.47011,6.607918 c -0.0585,-0.34821 0.34821,0.05853 0,0 z m 7.17836,-3.53249 c 0.16936,-0.353764 0.44215,0.155079 0,0 z m -8.20232,4.559995 c 0.29663,-0.521002 0.13026,0.43478 0,0 z m 10.48055,-5.126894 c 0.4845,-0.478095 0.0804,0.452155 0,0 z m 0,4.099389 c 1.1261,-0.688178 0.66729,0.933073 0,0 z m 1.70778,-4.669832 c 1.15831,0.456374 -1.50451,0.290846 0,0 z"
       id="São Paulo"
       inkscape:connector-curvature="0" />
  </g>
</svg>
