<?xml version="1.0" encoding="UTF-8" standalone="no"?>
<svg
   xmlns:dc="http://purl.org/dc/elements/1.1/"
   xmlns:cc="http://creativecommons.org/ns#"
   xmlns:rdf="http://www.w3.org/1999/02/22-rdf-syntax-ns#"
   xmlns:svg="http://www.w3.org/2000/svg"
   xmlns="http://www.w3.org/2000/svg"
   version="1.1"
   id="svg3967"
   viewBox="0 0 744.09448819 1052.3622047"
   height="297mm"
   width="210mm">
  <defs
     id="defs3969" />
  <metadata
     id="metadata3972">
    <rdf:RDF>
      <cc:Work
         rdf:about="">
        <dc:format>image/svg+xml</dc:format>
        <dc:type
           rdf:resource="http://purl.org/dc/dcmitype/StillImage" />
        <dc:title></dc:title>
      </cc:Work>
    </rdf:RDF>
  </metadata>
  <g
     id="layer1">
    <path
       id="Tocantins"
       d="m 1.4063784,110.5311 c 0.089645,-1.57516 1.5865716,-2.55821 1.3744959,-4.07884 -0.5748077,-1.43217 1.378767,-1.97236 0.6769711,-3.43966 0.1246796,-1.21581 -0.2171103,-2.60334 0.453519,-3.41557 C 4.8015177,98.322449 2.90281,96.884852 4.5951874,96.17792 5.1785117,95.276466 5.3712009,94.327119 5.688363,93.455904 6.4081076,92.1418 7.1282868,91.175395 7.4438554,89.456616 6.5419011,87.839701 8.5726068,86.889348 8.924879,85.587251 c 0.4631436,-1.511273 1.2772,-2.849921 1.813733,-4.361889 0.758377,-1.143482 1.156977,-2.501491 1.495867,-3.708754 -0.67911,-1.212565 1.061647,-2.428112 0.793334,-3.894192 0.870096,-1.109063 2.037655,-1.626619 2.692185,-3.015363 0.569199,-1.504158 1.503121,-2.552022 2.389932,-3.873742 1.019188,-1.299001 2.963117,-0.738119 3.460345,-2.567485 0.762343,-1.418757 1.943991,-2.562858 2.428681,-3.980698 -0.239089,-2.062531 2.57537,-2.135066 2.326959,-4.206065 0.857403,-1.145339 0.60965,-2.807026 1.281836,-3.774807 0.182805,-1.393188 0.220337,-2.833387 0.343683,-4.21631 -0.208251,-1.106636 -2.30775,-1.726906 -3.075428,-2.84867 -1.221059,-1.6634 -0.528437,-3.518344 1.023962,-4.66983 1.09335,-1.358782 2.061108,-2.954806 1.481024,-4.779955 0.340712,-1.375439 -1.213085,-3.335438 0.683822,-3.879435 1.491568,-0.963462 2.538566,-2.056587 4.318348,-2.333333 1.715849,0.20089 2.76658,-0.970302 3.997354,-1.766057 -0.149809,-1.414917 0.01483,-2.892581 1.308591,-3.857767 0.80455,-1.748423 2.650214,-1.034285 3.442945,-1.2558 -0.469309,-0.900561 -1.454281,-2.121222 -0.765526,-3.315513 1.89734,-0.163374 2.685304,-1.589387 1.481025,-2.73529 1.188798,-0.776423 2.531377,-1.387043 0.797202,-2.73529 -0.929724,-1.759438 0.478875,-2.157517 1.824706,-2.39161 1.501842,-1.339061 0.06492,-2.8237689 -1.481024,-2.84866 -1.421948,-0.2278409 -1.044555,-2.67446 -2.278226,-2.39161 -1.229879,0.040917 -2.50552,0.5874348 -3.87263,0.11338 -0.350628,-0.7995753 -3.304058,-0.7999941 -1.254265,-1.1373403 0.506488,-1.3058488 2.584083,0.7743338 2.391606,-1.82471 0.517051,-1.2164199 3.025081,-1.6510864 4.102933,-0.68382 1.62878,0.3970406 3.715196,2.1510481 5.240275,0.57044 1.804229,-0.2989109 2.335892,1.0651828 2.731745,2.39161 1.586458,-0.083338 2.984712,0.8731466 4.397762,1.6960602 1.831452,0.1383312 2.100122,2.9883611 1.412955,4.4547901 1.238885,1.381614 1.168121,3.294144 0.986073,4.838948 0.198023,1.392923 0.09588,2.900764 0.952014,4.164122 -0.221306,1.438287 -1.140116,2.945838 -0.683822,4.32615 -0.880897,0.824083 -0.742128,2.419537 -1.254265,3.41911 -0.567873,1.610393 -0.142319,2.782849 -0.529317,4.247864 -0.02004,1.552773 -1.507058,2.417742 -2.202428,3.614326 -2.474842,-0.594095 -0.923598,1.572941 0.03643,2.439863 0.682899,-0.387047 3.377809,-0.930788 2.92562,1.319387 -2.517914,1.280919 -1.061413,0.689417 -0.230303,1.93454 0.551945,1.179323 0.986813,0.706415 1.711327,1.5944 0.469874,2.102468 0.04,0.311772 1.250722,1.36765 -0.327988,0.491618 0.221947,1.019089 0.457062,1.36764 0.791552,0.103807 0.801797,1.035314 0.910582,1.48103 0.728875,0.512897 1.224872,0.780682 1.594404,1.70778 0.915718,0.494275 0.19798,1.06682 1.367644,1.59795 0.102955,1.046338 1.170599,1.101827 1.687232,0.573751 -0.0061,-0.853887 1.214326,-1.007988 1.501576,-1.374501 0.540224,0.185166 1.43156,-0.261385 1.824707,-0.34014 0.482447,-0.754952 1.759422,-0.387689 2.618365,-0.7972 0.722576,0.698284 2.408422,1.249563 2.16485,2.73529 -0.124291,1.118918 -0.666991,2.401653 -0.45352,3.75925 -0.758342,1.770152 -3.034626,0.144036 -3.759253,1.93454 -1.447528,-0.591031 -0.924212,0.53494 -1.37909,1.379096 -1.05593,0.03909 -0.246543,0.997554 -0.902679,1.696334 -0.413182,0.03061 -0.354483,0.417729 -0.910582,0.57044 0.659395,0.06189 -0.257126,1.066117 0.343683,1.25427 0.166136,0.852168 -1.021008,1.284529 0,2.16484 0.08934,1.19016 -1.101127,1.132963 -1.481024,1.70779 0.556942,0.723963 -0.832561,1.409027 -0.910582,1.93808 -0.289024,0.07701 -0.36706,1.015257 -0.116923,1.13735 0.334805,0.469231 2.763641,-0.320802 1.938087,0.45706 -0.257862,1.144644 1.623265,0.12171 1.367644,1.70778 1.403557,0.178169 -0.561884,2.08287 0.683822,2.16485 1.002249,1.079271 0.649677,2.181438 2.278227,1.25426 0.496312,1.006946 1.868241,1.273121 1.894644,2.445147 0.45497,0.506308 -0.952022,2.026595 -1.554504,2.795133 0.462581,1.119357 1.310843,1.409946 1.93808,2.05146 1.060345,-0.08094 1.151614,1.468211 1.02397,2.39161 -0.178063,1.711935 1.346253,2.254866 1.8247,3.75925 1.234194,0.51973 2.841274,-0.252236 3.87263,0.68382 2.105105,-1.098987 1.530395,0.625825 3.0366,0.834475 1.17058,-0.554194 3.841304,1.074281 3.80592,-1.15439 0.33602,-1.563431 1.037784,1.269177 0.20905,1.999669 -1.074454,0.889274 -1.903638,1.339579 -2.261545,2.306256 -1.196697,0.766848 -2.315999,1.660227 -3.295671,2.359934 -0.361112,1.020945 -1.984619,0.570129 -2.748614,1.28594 1.223334,1.393591 -1.145075,1.598137 -0.34014,2.73529 -1.496157,0.7347 -0.642581,2.34124 -2.39515,3.07543 -1.573347,0.77886 -0.557761,3.81429 -2.650541,4.17394 -1.508152,0.0741 -1.777399,2.04829 -0.424889,2.54736 0.671334,0.70223 0.381633,2.66562 1.93809,2.50498 0.954565,0.70295 2.3428,0.21434 3.53249,0.79721 0.152328,1.3028 3.079687,0.29185 2.171471,1.41507 -1.150202,0.80317 -3.2818,-1.32246 -3.425741,0.17933 0.217313,1.64914 -1.53952,1.45718 -0.34013,2.50853 -1.292592,0.84923 -0.571557,1.94289 1.02396,1.5944 2.328605,-0.39987 1.360549,1.06505 -0.57045,1.02397 -1.391605,0.54601 -1.93739,1.79209 -1.02396,2.73528 -0.617188,1.20771 -0.111713,1.81201 -0.04277,2.67146 0.800406,0.72482 -0.08459,0.85816 0.726601,1.54486 0.370383,1.02552 1.25798,0.89644 1.13734,2.3916 2.003569,-0.81448 2.198388,0.872 0.11338,0.91058 -1.224439,0.90429 0.238785,2.01786 -0.68028,2.62191 0.60113,0.92379 0.0094,2.35457 0.11338,3.18881 -1.200583,2.10567 1.518807,0.49747 2.61836,0.57044 -0.07739,0.55975 -1.994264,0.87634 -2.73174,1.02397 -1.544651,0.7629 -1.513031,-0.214 -1.25427,-1.36765 -0.09265,-0.89018 -1.385946,-1.75243 -1.109693,0.42184 -0.339019,1.72229 -2.936229,0.70122 -4.455656,0.88679 -1.764545,-0.33046 -2.17514,1.0875 -2.980653,1.7668 -0.149562,-1.00443 -1.53408,1.22785 -2.047923,0.91412 -0.56007,0.4816 -1.583054,0.75516 -1.824707,1.02397 -0.625043,0.18872 -1.205632,0.29454 -2.164846,0.34014 -0.621726,0.90568 -0.758093,1.0579 -2.051467,0.80074 -0.607944,-0.2982 -1.9738,1.35329 -1.364101,-0.34368 -0.682226,-0.79134 -2.151515,-0.20837 -2.164846,-1.82117 -1.181067,-0.91345 -1.712432,0.54537 -1.504791,0.90275 -0.534237,0.72427 0.534978,1.15238 -0.08961,2.17268 0.592415,0.91499 0.491194,2.45018 -0.569105,2.59833 -1.049304,-1.0597 -1.834821,-2.70201 -3.307069,-2.37157 -0.326502,-0.75972 -0.923439,0.22672 -1.481024,-0.34014 -0.759738,-0.37037 -1.138749,-0.78218 -1.594404,-1.0275 0.22185,1.0865 -0.97823,1.11352 -1.481024,1.14088 0.200032,-0.42992 -0.282352,-1.64934 0.22676,-2.50853 -0.714217,-0.13049 -1.411518,0.44533 -2.047924,0.79721 -0.51304,-0.11206 -0.346246,0.88594 -1.254264,0.45706 0.147809,0.48153 -1.031151,0.53976 -1.481024,0.91058 -0.448573,0.11338 -0.661697,-0.83699 -0.683822,-1.5944 0.217235,-1.68317 -0.693788,-0.64831 -1.367645,0.22676 0.447707,0.91167 -0.734517,3.00947 -0.566899,1.0275 0.174381,-0.94567 -0.129159,-1.63915 0.22676,-2.39161 -0.319678,-0.72989 -0.783349,-1.51473 -1.367645,-2.05146 -0.653583,-0.091 -1.468594,0.11562 -1.367644,-1.48103 -0.820474,-0.46976 -1.118628,-1.12432 -1.821164,-1.36764 -0.138249,-1.80781 -1.504559,1.32378 -2.164846,2.05147 -0.408119,-1.29945 -2.438995,-0.46431 -1.594404,-1.82471 -0.601523,-1.07061 -1.366171,-1.05093 -2.278226,0.34368 -0.844725,0.27672 -1.022114,1.71827 -1.428907,2.33954 -1.354732,1.28362 -0.952913,2.46553 -0.849319,3.9247 -0.82158,1.48682 -3.071019,-1.27411 -4.443073,-1.59441 -2.567129,-1.42554 -5.275675,-3.48875 -7.748803,-3.87263 -0.914326,-0.52063 -2.370269,-0.10345 -2.618366,-1.02396 -0.5290453,-0.32653 -1.4389506,-0.0956 -1.367645,-1.25426 0.540556,-0.56193 -0.1435823,-2.13055 0.45352,-1.70779 0.4928081,-0.29559 0.2567503,-1.94718 1.194421,-2.01156 0.265227,-0.12452 -0.8778257,-1.41783 0.516906,-2.20475 1.25005,-1.01021 -0.594898,-0.68317 -0.11338,-0.2303 -0.696507,0.2106 -1.4126779,0.6653 -2.281769,1.36764 -0.050434,0.32427 -1.0670487,0.71631 -1.1373416,1.59441 -1.0990447,0.86308 -0.2486269,0.99431 -1.2474567,1.59794 -0.4263126,0.76642 -0.053003,1.29714 -0.5772503,2.16485 -0.17107,1.60304 -1.7344947,-0.94409 -1.9267031,-0.0238 -0.2116548,-0.74268 -0.4912264,-1.791 -0.5782819,-2.93829 -1.8184574,-0.24255 -0.2021658,-1.03516 -0.2744689,-2.26849 0.6041751,-1.26511 0.7428146,-1.74086 0.3878479,-3.31547 0.4920587,-1.61309 -1.1620489,-1.68673 -0.570442,-3.1888 0.3237512,-1.36662 -0.6640885,-2.32252 0.343683,-3.41911 0.4942508,-1.15903 -0.883646,-1.62847 -1.023962,-3.30219 0.1786359,-0.68446 1.7695399,-2.47851 0.453519,-2.96205 -1.2982372,-0.0424 -0.7466257,-1.65575 -0.910582,-2.50853 z"
       style="fill:#98db11;stroke:#ffffff;stroke-width:0.9920736" />
  </g>
</svg>
